[   14] t: 0.00325 - deltat: 0.00025
	[    1] t: 0.00325 - deltat: 0.00025
	[    2] t: 0.00325 - deltat: 0.00025
	[    3] t: 0.00325 - deltat: 0.00025
	[    4] t: 0.00325 - deltat: 0.00025
	[    5] t: 0.00325 - deltat: 0.00025
	[    6] t: 0.00325 - deltat: 0.00025
	[    7] t: 0.00325 - deltat: 0.00025
	[    8] t: 0.00325 - deltat: 0.00025
	[    9] t: 0.00325 - deltat: 0.00025
	[   10] t: 0.00325 - deltat: 0.00025
	[   11] t: 0.00325 - deltat: 0.00025
	[   12] t: 0.00325 - deltat: 0.00025
	[   13] t: 0.00325 - deltat: 0.00025
	[   14] t: 0.00325 - deltat: 0.00025
	[   15] t: 0.00325 - deltat: 0.00025
	[   16] t: 0.00325 - deltat: 0.00025
	[   17] t: 0.00325 - deltat: 0.00025
	[   18] t: 0.00325 - deltat: 0.00025
	[   19] t: 0.00325 - deltat: 0.00025
	[   20] t: 0.00325 - deltat: 0.00025
	[   21] t: 0.00325 - deltat: 0.00025
	[   22] t: 0.00325 - deltat: 0.00025
	[   23] t: 0.00325 - deltat: 0.00025
	[   24] t: 0.00325 - deltat: 0.00025
	[   25] t: 0.00325 - deltat: 0.00025
	[   26] t: 0.00325 - deltat: 0.00025
	[   27] t: 0.00325 - deltat: 0.00025
	[   28] t: 0.00325 - deltat: 0.00025
[   15] t: 0.00350 - deltat: 0.00025
	[    1] t: 0.00350 - deltat: 0.00025
	[    2] t: 0.00350 - deltat: 0.00025
	[    3] t: 0.00350 - deltat: 0.00025
	[    4] t: 0.00350 - deltat: 0.00025
	[    5] t: 0.00350 - deltat: 0.00025
	[    6] t: 0.00350 - deltat: 0.00025
	[    7] t: 0.00350 - deltat: 0.00025
	[    8] t: 0.00350 - deltat: 0.00025
	[    9] t: 0.00350 - deltat: 0.00025
	[   10] t: 0.00350 - deltat: 0.00025
	[   11] t: 0.00350 - deltat: 0.00025
	[   12] t: 0.00350 - deltat: 0.00025
	[   13] t: 0.00350 - deltat: 0.00025
	[   14] t: 0.00350 - deltat: 0.00025
	[   15] t: 0.00350 - deltat: 0.00025
	[   16] t: 0.00350 - deltat: 0.00025
	[   17] t: 0.00350 - deltat: 0.00025
	[   18] t: 0.00350 - deltat: 0.00025
	[   19] t: 0.00350 - deltat: 0.00025
	[   20] t: 0.00350 - deltat: 0.00025
	[   21] t: 0.00350 - deltat: 0.00025
	[   22] t: 0.00350 - deltat: 0.00025
	[   23] t: 0.00350 - deltat: 0.00025
	[   24] t: 0.00350 - deltat: 0.00025
	[   25] t: 0.00350 - deltat: 0.00025
	[   26] t: 0.00350 - deltat: 0.00025
[   16] t: 0.00375 - deltat: 0.00025
	[    1] t: 0.00375 - deltat: 0.00025
	[    2] t: 0.00375 - deltat: 0.00025
	[    3] t: 0.00375 - deltat: 0.00025
	[    4] t: 0.00375 - deltat: 0.00025
	[    5] t: 0.00375 - deltat: 0.00025
	[    6] t: 0.00375 - deltat: 0.00025
	[    7] t: 0.00375 - deltat: 0.00025
	[    8] t: 0.00375 - deltat: 0.00025
	[    9] t: 0.00375 - deltat: 0.00025
	[   10] t: 0.00375 - deltat: 0.00025
	[   11] t: 0.00375 - deltat: 0.00025
	[   12] t: 0.00375 - deltat: 0.00025
	[   13] t: 0.00375 - deltat: 0.00025
	[   14] t: 0.00375 - deltat: 0.00025
	[   15] t: 0.00375 - deltat: 0.00025
	[   16] t: 0.00375 - deltat: 0.00025
	[   17] t: 0.00375 - deltat: 0.00025
	[   18] t: 0.00375 - deltat: 0.00025
	[   19] t: 0.00375 - deltat: 0.00025
	[   20] t: 0.00375 - deltat: 0.00025
	[   21] t: 0.00375 - deltat: 0.00025
	[   22] t: 0.00375 - deltat: 0.00025
	[   23] t: 0.00375 - deltat: 0.00025
	[   24] t: 0.00375 - deltat: 0.00025
[   17] t: 0.00400 - deltat: 0.00025
	[    1] t: 0.00400 - deltat: 0.00025
	[    2] t: 0.00400 - deltat: 0.00025
	[    3] t: 0.00400 - deltat: 0.00025
	[    4] t: 0.00400 - deltat: 0.00025
	[    5] t: 0.00400 - deltat: 0.00025
	[    6] t: 0.00400 - deltat: 0.00025
	[    7] t: 0.00400 - deltat: 0.00025
	[    8] t: 0.00400 - deltat: 0.00025
	[    9] t: 0.00400 - deltat: 0.00025
	[   10] t: 0.00400 - deltat: 0.00025
	[   11] t: 0.00400 - deltat: 0.00025
	[   12] t: 0.00400 - deltat: 0.00025
	[   13] t: 0.00400 - deltat: 0.00025
	[   14] t: 0.00400 - deltat: 0.00025
	[   15] t: 0.00400 - deltat: 0.00025
	[   16] t: 0.00400 - deltat: 0.00025
	[   17] t: 0.00400 - deltat: 0.00025
	[   18] t: 0.00400 - deltat: 0.00025
	[   19] t: 0.00400 - deltat: 0.00025
	[   20] t: 0.00400 - deltat: 0.00025
	[   21] t: 0.00400 - deltat: 0.00025
	[   22] t: 0.00400 - deltat: 0.00025
	[   23] t: 0.00400 - deltat: 0.00025
[   18] t: 0.00425 - deltat: 0.00025
	[    1] t: 0.00425 - deltat: 0.00025
	[    2] t: 0.00425 - deltat: 0.00025
	[    3] t: 0.00425 - deltat: 0.00025
	[    4] t: 0.00425 - deltat: 0.00025
	[    5] t: 0.00425 - deltat: 0.00025
	[    6] t: 0.00425 - deltat: 0.00025
	[    7] t: 0.00425 - deltat: 0.00025
	[    8] t: 0.00425 - deltat: 0.00025
	[    9] t: 0.00425 - deltat: 0.00025
	[   10] t: 0.00425 - deltat: 0.00025
	[   11] t: 0.00425 - deltat: 0.00025
	[   12] t: 0.00425 - deltat: 0.00025
	[   13] t: 0.00425 - deltat: 0.00025
	[   14] t: 0.00425 - deltat: 0.00025
	[   15] t: 0.00425 - deltat: 0.00025
	[   16] t: 0.00425 - deltat: 0.00025
	[   17] t: 0.00425 - deltat: 0.00025
	[   18] t: 0.00425 - deltat: 0.00025
	[   19] t: 0.00425 - deltat: 0.00025
	[   20] t: 0.00425 - deltat: 0.00025
	[   21] t: 0.00425 - deltat: 0.00025
[   19] t: 0.00450 - deltat: 0.00025
	[    1] t: 0.00450 - deltat: 0.00025
	[    2] t: 0.00450 - deltat: 0.00025
	[    3] t: 0.00450 - deltat: 0.00025
	[    4] t: 0.00450 - deltat: 0.00025
	[    5] t: 0.00450 - deltat: 0.00025
	[    6] t: 0.00450 - deltat: 0.00025
	[    7] t: 0.00450 - deltat: 0.00025
	[    8] t: 0.00450 - deltat: 0.00025
	[    9] t: 0.00450 - deltat: 0.00025
	[   10] t: 0.00450 - deltat: 0.00025
	[   11] t: 0.00450 - deltat: 0.00025
	[   12] t: 0.00450 - deltat: 0.00025
	[   13] t: 0.00450 - deltat: 0.00025
	[   14] t: 0.00450 - deltat: 0.00025
	[   15] t: 0.00450 - deltat: 0.00025
	[   16] t: 0.00450 - deltat: 0.00025
	[   17] t: 0.00450 - deltat: 0.00025
	[   18] t: 0.00450 - deltat: 0.00025
	[   19] t: 0.00450 - deltat: 0.00025
	[   20] t: 0.00450 - deltat: 0.00025
[   20] t: 0.00475 - deltat: 0.00025
	[    1] t: 0.00475 - deltat: 0.00025
	[    2] t: 0.00475 - deltat: 0.00025
	[    3] t: 0.00475 - deltat: 0.00025
	[    4] t: 0.00475 - deltat: 0.00025
	[    5] t: 0.00475 - deltat: 0.00025
	[    6] t: 0.00475 - deltat: 0.00025
	[    7] t: 0.00475 - deltat: 0.00025
	[    8] t: 0.00475 - deltat: 0.00025
	[    9] t: 0.00475 - deltat: 0.00025
	[   10] t: 0.00475 - deltat: 0.00025
	[   11] t: 0.00475 - deltat: 0.00025
	[   12] t: 0.00475 - deltat: 0.00025
	[   13] t: 0.00475 - deltat: 0.00025
	[   14] t: 0.00475 - deltat: 0.00025
	[   15] t: 0.00475 - deltat: 0.00025
	[   16] t: 0.00475 - deltat: 0.00025
	[   17] t: 0.00475 - deltat: 0.00025
	[   18] t: 0.00475 - deltat: 0.00025
[   21] t: 0.00500 - deltat: 0.00025
	[    1] t: 0.00500 - deltat: 0.00025
	[    2] t: 0.00500 - deltat: 0.00025
	[    3] t: 0.00500 - deltat: 0.00025
	[    4] t: 0.00500 - deltat: 0.00025
	[    5] t: 0.00500 - deltat: 0.00025
	[    6] t: 0.00500 - deltat: 0.00025
	[    7] t: 0.00500 - deltat: 0.00025
	[    8] t: 0.00500 - deltat: 0.00025
	[    9] t: 0.00500 - deltat: 0.00025
	[   10] t: 0.00500 - deltat: 0.00025
	[   11] t: 0.00500 - deltat: 0.00025
	[   12] t: 0.00500 - deltat: 0.00025
	[   13] t: 0.00500 - deltat: 0.00025
	[   14] t: 0.00500 - deltat: 0.00025
	[   15] t: 0.00500 - deltat: 0.00025
	[   16] t: 0.00500 - deltat: 0.00025
	[   17] t: 0.00500 - deltat: 0.00025
[   22] t: 0.00525 - deltat: 0.00025
	[    1] t: 0.00525 - deltat: 0.00025
	[    2] t: 0.00525 - deltat: 0.00025
	[    3] t: 0.00525 - deltat: 0.00025
	[    4] t: 0.00525 - deltat: 0.00025
	[    5] t: 0.00525 - deltat: 0.00025
	[    6] t: 0.00525 - deltat: 0.00025
	[    7] t: 0.00525 - deltat: 0.00025
	[    8] t: 0.00525 - deltat: 0.00025
	[    9] t: 0.00525 - deltat: 0.00025
	[   10] t: 0.00525 - deltat: 0.00025
	[   11] t: 0.00525 - deltat: 0.00025
	[   12] t: 0.00525 - deltat: 0.00025
	[   13] t: 0.00525 - deltat: 0.00025
	[   14] t: 0.00525 - deltat: 0.00025
	[   15] t: 0.00525 - deltat: 0.00025
	[   16] t: 0.00525 - deltat: 0.00025
[   23] t: 0.00550 - deltat: 0.00025
	[    1] t: 0.00550 - deltat: 0.00025
	[    2] t: 0.00550 - deltat: 0.00025
	[    3] t: 0.00550 - deltat: 0.00025
	[    4] t: 0.00550 - deltat: 0.00025
	[    5] t: 0.00550 - deltat: 0.00025
	[    6] t: 0.00550 - deltat: 0.00025
	[    7] t: 0.00550 - deltat: 0.00025
	[    8] t: 0.00550 - deltat: 0.00025
	[    9] t: 0.00550 - deltat: 0.00025
	[   10] t: 0.00550 - deltat: 0.00025
	[   11] t: 0.00550 - deltat: 0.00025
	[   12] t: 0.00550 - deltat: 0.00025
	[   13] t: 0.00550 - deltat: 0.00025
	[   14] t: 0.00550 - deltat: 0.00025
[   24] t: 0.00575 - deltat: 0.00025
	[    1] t: 0.00575 - deltat: 0.00025
	[    2] t: 0.00575 - deltat: 0.00025
	[    3] t: 0.00575 - deltat: 0.00025
	[    4] t: 0.00575 - deltat: 0.00025
	[    5] t: 0.00575 - deltat: 0.00025
	[    6] t: 0.00575 - deltat: 0.00025
	[    7] t: 0.00575 - deltat: 0.00025
	[    8] t: 0.00575 - deltat: 0.00025
	[    9] t: 0.00575 - deltat: 0.00025
	[   10] t: 0.00575 - deltat: 0.00025
	[   11] t: 0.00575 - deltat: 0.00025
	[   12] t: 0.00575 - deltat: 0.00025
	[   13] t: 0.00575 - deltat: 0.00025
[   25] t: 0.00600 - deltat: 0.00025
	[    1] t: 0.00600 - deltat: 0.00025
	[    2] t: 0.00600 - deltat: 0.00025
	[    3] t: 0.00600 - deltat: 0.00025
	[    4] t: 0.00600 - deltat: 0.00025
	[    5] t: 0.00600 - deltat: 0.00025
	[    6] t: 0.00600 - deltat: 0.00025
	[    7] t: 0.00600 - deltat: 0.00025
	[    8] t: 0.00600 - deltat: 0.00025
	[    9] t: 0.00600 - deltat: 0.00025
	[   10] t: 0.00600 - deltat: 0.00025
	[   11] t: 0.00600 - deltat: 0.00025
	[   12] t: 0.00600 - deltat: 0.00025
[   26] t: 0.00625 - deltat: 0.00025
	[    1] t: 0.00625 - deltat: 0.00025
	[    2] t: 0.00625 - deltat: 0.00025
	[    3] t: 0.00625 - deltat: 0.00025
	[    4] t: 0.00625 - deltat: 0.00025
	[    5] t: 0.00625 - deltat: 0.00025
	[    6] t: 0.00625 - deltat: 0.00025
	[    7] t: 0.00625 - deltat: 0.00025
	[    8] t: 0.00625 - deltat: 0.00025
	[    9] t: 0.00625 - deltat: 0.00025
	[   10] t: 0.00625 - deltat: 0.00025
	[   11] t: 0.00625 - deltat: 0.00025
[   27] t: 0.00650 - deltat: 0.00025
	[    1] t: 0.00650 - deltat: 0.00025
	[    2] t: 0.00650 - deltat: 0.00025
	[    3] t: 0.00650 - deltat: 0.00025
	[    4] t: 0.00650 - deltat: 0.00025
	[    5] t: 0.00650 - deltat: 0.00025
	[    6] t: 0.00650 - deltat: 0.00025
	[    7] t: 0.00650 - deltat: 0.00025
	[    8] t: 0.00650 - deltat: 0.00025
	[    9] t: 0.00650 - deltat: 0.00025
	[   10] t: 0.00650 - deltat: 0.00025
[   28] t: 0.00675 - deltat: 0.00025
	[    1] t: 0.00675 - deltat: 0.00025
	[    2] t: 0.00675 - deltat: 0.00025
	[    3] t: 0.00675 - deltat: 0.00025
	[    4] t: 0.00675 - deltat: 0.00025
	[    5] t: 0.00675 - deltat: 0.00025
	[    6] t: 0.00675 - deltat: 0.00025
	[    7] t: 0.00675 - deltat: 0.00025
	[    8] t: 0.00675 - deltat: 0.00025
	[    9] t: 0.00675 - deltat: 0.00025
	[   10] t: 0.00675 - deltat: 0.00025
[   29] t: 0.00700 - deltat: 0.00025
	[    1] t: 0.00700 - deltat: 0.00025
	[    2] t: 0.00700 - deltat: 0.00025
	[    3] t: 0.00700 - deltat: 0.00025
	[    4] t: 0.00700 - deltat: 0.00025
	[    5] t: 0.00700 - deltat: 0.00025
	[    6] t: 0.00700 - deltat: 0.00025
	[    7] t: 0.00700 - deltat: 0.00025
	[    8] t: 0.00700 - deltat: 0.00025
	[    9] t: 0.00700 - deltat: 0.00025
[   30] t: 0.00725 - deltat: 0.00025
	[    1] t: 0.00725 - deltat: 0.00025
	[    2] t: 0.00725 - deltat: 0.00025
	[    3] t: 0.00725 - deltat: 0.00025
	[    4] t: 0.00725 - deltat: 0.00025
	[    5] t: 0.00725 - deltat: 0.00025
	[    6] t: 0.00725 - deltat: 0.00025
	[    7] t: 0.00725 - deltat: 0.00025
	[    8] t: 0.00725 - deltat: 0.00025
	[    9] t: 0.00725 - deltat: 0.00025
[   31] t: 0.00750 - deltat: 0.00025
	[    1] t: 0.00750 - deltat: 0.00025
	[    2] t: 0.00750 - deltat: 0.00025
	[    3] t: 0.00750 - deltat: 0.00025
	[    4] t: 0.00750 - deltat: 0.00025
	[    5] t: 0.00750 - deltat: 0.00025
	[    6] t: 0.00750 - deltat: 0.00025
	[    7] t: 0.00750 - deltat: 0.00025
	[    8] t: 0.00750 - deltat: 0.00025
[   32] t: 0.00775 - deltat: 0.00025
	[    1] t: 0.00775 - deltat: 0.00025
	[    2] t: 0.00775 - deltat: 0.00025
	[    3] t: 0.00775 - deltat: 0.00025
	[    4] t: 0.00775 - deltat: 0.00025
	[    5] t: 0.00775 - deltat: 0.00025
	[    6] t: 0.00775 - deltat: 0.00025
	[    7] t: 0.00775 - deltat: 0.00025
	[    8] t: 0.00775 - deltat: 0.00025
[   33] t: 0.00800 - deltat: 0.00025
	[    1] t: 0.00800 - deltat: 0.00025
	[    2] t: 0.00800 - deltat: 0.00025
	[    3] t: 0.00800 - deltat: 0.00025
	[    4] t: 0.00800 - deltat: 0.00025
	[    5] t: 0.00800 - deltat: 0.00025
	[    6] t: 0.00800 - deltat: 0.00025
	[    7] t: 0.00800 - deltat: 0.00025
	[    8] t: 0.00800 - deltat: 0.00025
[   34] t: 0.00825 - deltat: 0.00025
	[    1] t: 0.00825 - deltat: 0.00025
	[    2] t: 0.00825 - deltat: 0.00025
	[    3] t: 0.00825 - deltat: 0.00025
	[    4] t: 0.00825 - deltat: 0.00025
	[    5] t: 0.00825 - deltat: 0.00025
	[    6] t: 0.00825 - deltat: 0.00025
	[    7] t: 0.00825 - deltat: 0.00025
	[    8] t: 0.00825 - deltat: 0.00025
[   35] t: 0.00850 - deltat: 0.00025
	[    1] t: 0.00850 - deltat: 0.00025
	[    2] t: 0.00850 - deltat: 0.00025
	[    3] t: 0.00850 - deltat: 0.00025
	[    4] t: 0.00850 - deltat: 0.00025
	[    5] t: 0.00850 - deltat: 0.00025
	[    6] t: 0.00850 - deltat: 0.00025
	[    7] t: 0.00850 - deltat: 0.00025
[   36] t: 0.00875 - deltat: 0.00025
	[    1] t: 0.00875 - deltat: 0.00025
	[    2] t: 0.00875 - deltat: 0.00025
	[    3] t: 0.00875 - deltat: 0.00025
	[    4] t: 0.00875 - deltat: 0.00025
	[    5] t: 0.00875 - deltat: 0.00025
	[    6] t: 0.00875 - deltat: 0.00025
	[    7] t: 0.00875 - deltat: 0.00025
[   37] t: 0.00900 - deltat: 0.00025
	[    1] t: 0.00900 - deltat: 0.00025
	[    2] t: 0.00900 - deltat: 0.00025
	[    3] t: 0.00900 - deltat: 0.00025
	[    4] t: 0.00900 - deltat: 0.00025
	[    5] t: 0.00900 - deltat: 0.00025
	[    6] t: 0.00900 - deltat: 0.00025
	[    7] t: 0.00900 - deltat: 0.00025
[   38] t: 0.00925 - deltat: 0.00025
	[    1] t: 0.00925 - deltat: 0.00025
	[    2] t: 0.00925 - deltat: 0.00025
	[    3] t: 0.00925 - deltat: 0.00025
	[    4] t: 0.00925 - deltat: 0.00025
	[    5] t: 0.00925 - deltat: 0.00025
	[    6] t: 0.00925 - deltat: 0.00025
	[    7] t: 0.00925 - deltat: 0.00025
[   39] t: 0.00950 - deltat: 0.00025
	[    1] t: 0.00950 - deltat: 0.00025
	[    2] t: 0.00950 - deltat: 0.00025
	[    3] t: 0.00950 - deltat: 0.00025
	[    4] t: 0.00950 - deltat: 0.00025
	[    5] t: 0.00950 - deltat: 0.00025
	[    6] t: 0.00950 - deltat: 0.00025
	[    7] t: 0.00950 - deltat: 0.00025
[   40] t: 0.00975 - deltat: 0.00025
	[    1] t: 0.00975 - deltat: 0.00025
	[    2] t: 0.00975 - deltat: 0.00025
	[    3] t: 0.00975 - deltat: 0.00025
	[    4] t: 0.00975 - deltat: 0.00025
	[    5] t: 0.00975 - deltat: 0.00025
	[    6] t: 0.00975 - deltat: 0.00025
	[    7] t: 0.00975 - deltat: 0.00025
[   41] t: 0.01000 - deltat: 0.00025
	[    1] t: 0.01000 - deltat: 0.00025
	[    2] t: 0.01000 - deltat: 0.00025
	[    3] t: 0.01000 - deltat: 0.00025
	[    4] t: 0.01000 - deltat: 0.00025
	[    5] t: 0.01000 - deltat: 0.00025
	[    6] t: 0.01000 - deltat: 0.00025
	[    7] t: 0.01000 - deltat: 0.00025
[   42] t: 0.01025 - deltat: 0.00025
	[    1] t: 0.01025 - deltat: 0.00025
	[    2] t: 0.01025 - deltat: 0.00025
	[    3] t: 0.01025 - deltat: 0.00025
	[    4] t: 0.01025 - deltat: 0.00025
	[    5] t: 0.01025 - deltat: 0.00025
	[    6] t: 0.01025 - deltat: 0.00025
	[    7] t: 0.01025 - deltat: 0.00025
[   43] t: 0.01050 - deltat: 0.00025
	[    1] t: 0.01050 - deltat: 0.00025
	[    2] t: 0.01050 - deltat: 0.00025
	[    3] t: 0.01050 - deltat: 0.00025
	[    4] t: 0.01050 - deltat: 0.00025
	[    5] t: 0.01050 - deltat: 0.00025
	[    6] t: 0.01050 - deltat: 0.00025
[   44] t: 0.01075 - deltat: 0.00025
	[    1] t: 0.01075 - deltat: 0.00025
	[    2] t: 0.01075 - deltat: 0.00025
	[    3] t: 0.01075 - deltat: 0.00025
	[    4] t: 0.01075 - deltat: 0.00025
	[    5] t: 0.01075 - deltat: 0.00025
	[    6] t: 0.01075 - deltat: 0.00025
[   45] t: 0.01100 - deltat: 0.00025
	[    1] t: 0.01100 - deltat: 0.00025
	[    2] t: 0.01100 - deltat: 0.00025
	[    3] t: 0.01100 - deltat: 0.00025
	[    4] t: 0.01100 - deltat: 0.00025
	[    5] t: 0.01100 - deltat: 0.00025
	[    6] t: 0.01100 - deltat: 0.00025
[   46] t: 0.01125 - deltat: 0.00025
	[    1] t: 0.01125 - deltat: 0.00025
	[    2] t: 0.01125 - deltat: 0.00025
	[    3] t: 0.01125 - deltat: 0.00025
	[    4] t: 0.01125 - deltat: 0.00025
	[    5] t: 0.01125 - deltat: 0.00025
	[    6] t: 0.01125 - deltat: 0.00025
[   47] t: 0.01150 - deltat: 0.00025
	[    1] t: 0.01150 - deltat: 0.00025
	[    2] t: 0.01150 - deltat: 0.00025
	[    3] t: 0.01150 - deltat: 0.00025
	[    4] t: 0.01150 - deltat: 0.00025
	[    5] t: 0.01150 - deltat: 0.00025
	[    6] t: 0.01150 - deltat: 0.00025
[   48] t: 0.01175 - deltat: 0.00025
	[    1] t: 0.01175 - deltat: 0.00025
	[    2] t: 0.01175 - deltat: 0.00025
	[    3] t: 0.01175 - deltat: 0.00025
	[    4] t: 0.01175 - deltat: 0.00025
	[    5] t: 0.01175 - deltat: 0.00025
	[    6] t: 0.01175 - deltat: 0.00025
[   49] t: 0.01200 - deltat: 0.00025
	[    1] t: 0.01200 - deltat: 0.00025
	[    2] t: 0.01200 - deltat: 0.00025
	[    3] t: 0.01200 - deltat: 0.00025
	[    4] t: 0.01200 - deltat: 0.00025
	[    5] t: 0.01200 - deltat: 0.00025
	[    6] t: 0.01200 - deltat: 0.00025
[   50] t: 0.01225 - deltat: 0.00025
	[    1] t: 0.01225 - deltat: 0.00025
	[    2] t: 0.01225 - deltat: 0.00025
	[    3] t: 0.01225 - deltat: 0.00025
	[    4] t: 0.01225 - deltat: 0.00025
	[    5] t: 0.01225 - deltat: 0.00025
	[    6] t: 0.01225 - deltat: 0.00025
[   51] t: 0.01250 - deltat: 0.00025
	[    1] t: 0.01250 - deltat: 0.00025
	[    2] t: 0.01250 - deltat: 0.00025
	[    3] t: 0.01250 - deltat: 0.00025
	[    4] t: 0.01250 - deltat: 0.00025
	[    5] t: 0.01250 - deltat: 0.00025
	[    6] t: 0.01250 - deltat: 0.00025
[   52] t: 0.01275 - deltat: 0.00025
	[    1] t: 0.01275 - deltat: 0.00025
	[    2] t: 0.01275 - deltat: 0.00025
	[    3] t: 0.01275 - deltat: 0.00025
	[    4] t: 0.01275 - deltat: 0.00025
	[    5] t: 0.01275 - deltat: 0.00025
	[    6] t: 0.01275 - deltat: 0.00025
[   53] t: 0.01300 - deltat: 0.00025
	[    1] t: 0.01300 - deltat: 0.00025
	[    2] t: 0.01300 - deltat: 0.00025
	[    3] t: 0.01300 - deltat: 0.00025
	[    4] t: 0.01300 - deltat: 0.00025
	[    5] t: 0.01300 - deltat: 0.00025
	[    6] t: 0.01300 - deltat: 0.00025
[   54] t: 0.01325 - deltat: 0.00025
	[    1] t: 0.01325 - deltat: 0.00025
	[    2] t: 0.01325 - deltat: 0.00025
	[    3] t: 0.01325 - deltat: 0.00025
	[    4] t: 0.01325 - deltat: 0.00025
	[    5] t: 0.01325 - deltat: 0.00025
	[    6] t: 0.01325 - deltat: 0.00025
[   55] t: 0.01350 - deltat: 0.00025
	[    1] t: 0.01350 - deltat: 0.00025
	[    2] t: 0.01350 - deltat: 0.00025
	[    3] t: 0.01350 - deltat: 0.00025
	[    4] t: 0.01350 - deltat: 0.00025
	[    5] t: 0.01350 - deltat: 0.00025
	[    6] t: 0.01350 - deltat: 0.00025
[   56] t: 0.01375 - deltat: 0.00025
	[    1] t: 0.01375 - deltat: 0.00025
	[    2] t: 0.01375 - deltat: 0.00025
	[    3] t: 0.01375 - deltat: 0.00025
	[    4] t: 0.01375 - deltat: 0.00025
	[    5] t: 0.01375 - deltat: 0.00025
	[    6] t: 0.01375 - deltat: 0.00025
[   57] t: 0.01400 - deltat: 0.00025
	[    1] t: 0.01400 - deltat: 0.00025
	[    2] t: 0.01400 - deltat: 0.00025
	[    3] t: 0.01400 - deltat: 0.00025
	[    4] t: 0.01400 - deltat: 0.00025
	[    5] t: 0.01400 - deltat: 0.00025
	[    6] t: 0.01400 - deltat: 0.00025
[   58] t: 0.01425 - deltat: 0.00025
	[    1] t: 0.01425 - deltat: 0.00025
	[    2] t: 0.01425 - deltat: 0.00025
	[    3] t: 0.01425 - deltat: 0.00025
	[    4] t: 0.01425 - deltat: 0.00025
	[    5] t: 0.01425 - deltat: 0.00025
	[    6] t: 0.01425 - deltat: 0.00025
[   59] t: 0.01450 - deltat: 0.00025
	[    1] t: 0.01450 - deltat: 0.00025
	[    2] t: 0.01450 - deltat: 0.00025
	[    3] t: 0.01450 - deltat: 0.00025
	[    4] t: 0.01450 - deltat: 0.00025
	[    5] t: 0.01450 - deltat: 0.00025
[   60] t: 0.01475 - deltat: 0.00025
	[    1] t: 0.01475 - deltat: 0.00025
	[    2] t: 0.01475 - deltat: 0.00025
	[    3] t: 0.01475 - deltat: 0.00025
	[    4] t: 0.01475 - deltat: 0.00025
	[    5] t: 0.01475 - deltat: 0.00025
[   61] t: 0.01500 - deltat: 0.00025
	[    1] t: 0.01500 - deltat: 0.00025
	[    2] t: 0.01500 - deltat: 0.00025
	[    3] t: 0.01500 - deltat: 0.00025
	[    4] t: 0.01500 - deltat: 0.00025
	[    5] t: 0.01500 - deltat: 0.00025
[   62] t: 0.01525 - deltat: 0.00025
	[    1] t: 0.01525 - deltat: 0.00025
	[    2] t: 0.01525 - deltat: 0.00025
	[    3] t: 0.01525 - deltat: 0.00025
	[    4] t: 0.01525 - deltat: 0.00025
	[    5] t: 0.01525 - deltat: 0.00025
[   63] t: 0.01550 - deltat: 0.00025
	[    1] t: 0.01550 - deltat: 0.00025
	[    2] t: 0.01550 - deltat: 0.00025
	[    3] t: 0.01550 - deltat: 0.00025
	[    4] t: 0.01550 - deltat: 0.00025
	[    5] t: 0.01550 - deltat: 0.00025
[   64] t: 0.01575 - deltat: 0.00025
	[    1] t: 0.01575 - deltat: 0.00025
	[    2] t: 0.01575 - deltat: 0.00025
	[    3] t: 0.01575 - deltat: 0.00025
	[    4] t: 0.01575 - deltat: 0.00025
	[    5] t: 0.01575 - deltat: 0.00025
[   65] t: 0.01600 - deltat: 0.00025
	[    1] t: 0.01600 - deltat: 0.00025
	[    2] t: 0.01600 - deltat: 0.00025
	[    3] t: 0.01600 - deltat: 0.00025
	[    4] t: 0.01600 - deltat: 0.00025
	[    5] t: 0.01600 - deltat: 0.00025
[   66] t: 0.01625 - deltat: 0.00025
	[    1] t: 0.01625 - deltat: 0.00025
	[    2] t: 0.01625 - deltat: 0.00025
	[    3] t: 0.01625 - deltat: 0.00025
	[    4] t: 0.01625 - deltat: 0.00025
	[    5] t: 0.01625 - deltat: 0.00025
[   67] t: 0.01650 - deltat: 0.00025
	[    1] t: 0.01650 - deltat: 0.00025
	[    2] t: 0.01650 - deltat: 0.00025
	[    3] t: 0.01650 - deltat: 0.00025
	[    4] t: 0.01650 - deltat: 0.00025
	[    5] t: 0.01650 - deltat: 0.00025
[   68] t: 0.01675 - deltat: 0.00025
	[    1] t: 0.01675 - deltat: 0.00025
	[    2] t: 0.01675 - deltat: 0.00025
	[    3] t: 0.01675 - deltat: 0.00025
	[    4] t: 0.01675 - deltat: 0.00025
	[    5] t: 0.01675 - deltat: 0.00025
[   69] t: 0.01700 - deltat: 0.00025
	[    1] t: 0.01700 - deltat: 0.00025
	[    2] t: 0.01700 - deltat: 0.00025
	[    3] t: 0.01700 - deltat: 0.00025
	[    4] t: 0.01700 - deltat: 0.00025
	[    5] t: 0.01700 - deltat: 0.00025
[   70] t: 0.01725 - deltat: 0.00025
	[    1] t: 0.01725 - deltat: 0.00025
	[    2] t: 0.01725 - deltat: 0.00025
	[    3] t: 0.01725 - deltat: 0.00025
	[    4] t: 0.01725 - deltat: 0.00025
	[    5] t: 0.01725 - deltat: 0.00025
[   71] t: 0.01750 - deltat: 0.00025
	[    1] t: 0.01750 - deltat: 0.00025
	[    2] t: 0.01750 - deltat: 0.00025
	[    3] t: 0.01750 - deltat: 0.00025
	[    4] t: 0.01750 - deltat: 0.00025
	[    5] t: 0.01750 - deltat: 0.00025
[   72] t: 0.01775 - deltat: 0.00025
	[    1] t: 0.01775 - deltat: 0.00025
	[    2] t: 0.01775 - deltat: 0.00025
	[    3] t: 0.01775 - deltat: 0.00025
	[    4] t: 0.01775 - deltat: 0.00025
	[    5] t: 0.01775 - deltat: 0.00025
[   73] t: 0.01800 - deltat: 0.00025
	[    1] t: 0.01800 - deltat: 0.00025
	[    2] t: 0.01800 - deltat: 0.00025
	[    3] t: 0.01800 - deltat: 0.00025
	[    4] t: 0.01800 - deltat: 0.00025
	[    5] t: 0.01800 - deltat: 0.00025
[   74] t: 0.01825 - deltat: 0.00025
	[    1] t: 0.01825 - deltat: 0.00025
	[    2] t: 0.01825 - deltat: 0.00025
	[    3] t: 0.01825 - deltat: 0.00025
	[    4] t: 0.01825 - deltat: 0.00025
	[    5] t: 0.01825 - deltat: 0.00025
[   75] t: 0.01850 - deltat: 0.00025
	[    1] t: 0.01850 - deltat: 0.00025
	[    2] t: 0.01850 - deltat: 0.00025
	[    3] t: 0.01850 - deltat: 0.00025
	[    4] t: 0.01850 - deltat: 0.00025
	[    5] t: 0.01850 - deltat: 0.00025
[   76] t: 0.01875 - deltat: 0.00025
	[    1] t: 0.01875 - deltat: 0.00025
	[    2] t: 0.01875 - deltat: 0.00025
	[    3] t: 0.01875 - deltat: 0.00025
	[    4] t: 0.01875 - deltat: 0.00025
	[    5] t: 0.01875 - deltat: 0.00025
[   77] t: 0.01900 - deltat: 0.00025
	[    1] t: 0.01900 - deltat: 0.00025
	[    2] t: 0.01900 - deltat: 0.00025
	[    3] t: 0.01900 - deltat: 0.00025
	[    4] t: 0.01900 - deltat: 0.00025
	[    5] t: 0.01900 - deltat: 0.00025
[   78] t: 0.01925 - deltat: 0.00025
	[    1] t: 0.01925 - deltat: 0.00025
	[    2] t: 0.01925 - deltat: 0.00025
	[    3] t: 0.01925 - deltat: 0.00025
	[    4] t: 0.01925 - deltat: 0.00025
	[    5] t: 0.01925 - deltat: 0.00025
[   79] t: 0.01950 - deltat: 0.00025
	[    1] t: 0.01950 - deltat: 0.00025
	[    2] t: 0.01950 - deltat: 0.00025
	[    3] t: 0.01950 - deltat: 0.00025
	[    4] t: 0.01950 - deltat: 0.00025
	[    5] t: 0.01950 - deltat: 0.00025
[   80] t: 0.01975 - deltat: 0.00025
	[    1] t: 0.01975 - deltat: 0.00025
	[    2] t: 0.01975 - deltat: 0.00025
	[    3] t: 0.01975 - deltat: 0.00025
	[    4] t: 0.01975 - deltat: 0.00025
	[    5] t: 0.01975 - deltat: 0.00025
[   81] t: 0.02000 - deltat: 0.00025
	[    1] t: 0.02000 - deltat: 0.00025
	[    2] t: 0.02000 - deltat: 0.00025
	[    3] t: 0.02000 - deltat: 0.00025
	[    4] t: 0.02000 - deltat: 0.00025
	[    5] t: 0.02000 - deltat: 0.00025
[   82] t: 0.02025 - deltat: 0.00025
	[    1] t: 0.02025 - deltat: 0.00025
	[    2] t: 0.02025 - deltat: 0.00025
	[    3] t: 0.02025 - deltat: 0.00025
	[    4] t: 0.02025 - deltat: 0.00025
	[    5] t: 0.02025 - deltat: 0.00025
[   83] t: 0.02050 - deltat: 0.00025
	[    1] t: 0.02050 - deltat: 0.00025
	[    2] t: 0.02050 - deltat: 0.00025
	[    3] t: 0.02050 - deltat: 0.00025
	[    4] t: 0.02050 - deltat: 0.00025
	[    5] t: 0.02050 - deltat: 0.00025
[   84] t: 0.02075 - deltat: 0.00025
	[    1] t: 0.02075 - deltat: 0.00025
	[    2] t: 0.02075 - deltat: 0.00025
	[    3] t: 0.02075 - deltat: 0.00025
	[    4] t: 0.02075 - deltat: 0.00025
	[    5] t: 0.02075 - deltat: 0.00025
[   85] t: 0.02100 - deltat: 0.00025
	[    1] t: 0.02100 - deltat: 0.00025
	[    2] t: 0.02100 - deltat: 0.00025
	[    3] t: 0.02100 - deltat: 0.00025
	[    4] t: 0.02100 - deltat: 0.00025
	[    5] t: 0.02100 - deltat: 0.00025
[   86] t: 0.02125 - deltat: 0.00025
	[    1] t: 0.02125 - deltat: 0.00025
	[    2] t: 0.02125 - deltat: 0.00025
	[    3] t: 0.02125 - deltat: 0.00025
	[    4] t: 0.02125 - deltat: 0.00025
	[    5] t: 0.02125 - deltat: 0.00025
[   87] t: 0.02150 - deltat: 0.00025
	[    1] t: 0.02150 - deltat: 0.00025
	[    2] t: 0.02150 - deltat: 0.00025
	[    3] t: 0.02150 - deltat: 0.00025
	[    4] t: 0.02150 - deltat: 0.00025
	[    5] t: 0.02150 - deltat: 0.00025
[   88] t: 0.02175 - deltat: 0.00025
	[    1] t: 0.02175 - deltat: 0.00025
	[    2] t: 0.02175 - deltat: 0.00025
	[    3] t: 0.02175 - deltat: 0.00025
	[    4] t: 0.02175 - deltat: 0.00025
	[    5] t: 0.02175 - deltat: 0.00025
[   89] t: 0.02200 - deltat: 0.00025
	[    1] t: 0.02200 - deltat: 0.00025
	[    2] t: 0.02200 - deltat: 0.00025
	[    3] t: 0.02200 - deltat: 0.00025
	[    4] t: 0.02200 - deltat: 0.00025
	[    5] t: 0.02200 - deltat: 0.00025
[   90] t: 0.02225 - deltat: 0.00025
	[    1] t: 0.02225 - deltat: 0.00025
	[    2] t: 0.02225 - deltat: 0.00025
	[    3] t: 0.02225 - deltat: 0.00025
	[    4] t: 0.02225 - deltat: 0.00025
	[    5] t: 0.02225 - deltat: 0.00025
[   91] t: 0.02250 - deltat: 0.00025
	[    1] t: 0.02250 - deltat: 0.00025
	[    2] t: 0.02250 - deltat: 0.00025
	[    3] t: 0.02250 - deltat: 0.00025
	[    4] t: 0.02250 - deltat: 0.00025
	[    5] t: 0.02250 - deltat: 0.00025
[   92] t: 0.02275 - deltat: 0.00025
	[    1] t: 0.02275 - deltat: 0.00025
	[    2] t: 0.02275 - deltat: 0.00025
	[    3] t: 0.02275 - deltat: 0.00025
	[    4] t: 0.02275 - deltat: 0.00025
	[    5] t: 0.02275 - deltat: 0.00025
[   93] t: 0.02300 - deltat: 0.00025
	[    1] t: 0.02300 - deltat: 0.00025
	[    2] t: 0.02300 - deltat: 0.00025
	[    3] t: 0.02300 - deltat: 0.00025
	[    4] t: 0.02300 - deltat: 0.00025
	[    5] t: 0.02300 - deltat: 0.00025
[   94] t: 0.02325 - deltat: 0.00025
	[    1] t: 0.02325 - deltat: 0.00025
	[    2] t: 0.02325 - deltat: 0.00025
	[    3] t: 0.02325 - deltat: 0.00025
	[    4] t: 0.02325 - deltat: 0.00025
	[    5] t: 0.02325 - deltat: 0.00025
[   95] t: 0.02350 - deltat: 0.00025
	[    1] t: 0.02350 - deltat: 0.00025
	[    2] t: 0.02350 - deltat: 0.00025
	[    3] t: 0.02350 - deltat: 0.00025
	[    4] t: 0.02350 - deltat: 0.00025
	[    5] t: 0.02350 - deltat: 0.00025
[   96] t: 0.02375 - deltat: 0.00025
	[    1] t: 0.02375 - deltat: 0.00025
	[    2] t: 0.02375 - deltat: 0.00025
	[    3] t: 0.02375 - deltat: 0.00025
	[    4] t: 0.02375 - deltat: 0.00025
	[    5] t: 0.02375 - deltat: 0.00025
[   97] t: 0.02400 - deltat: 0.00025
	[    1] t: 0.02400 - deltat: 0.00025
	[    2] t: 0.02400 - deltat: 0.00025
	[    3] t: 0.02400 - deltat: 0.00025
	[    4] t: 0.02400 - deltat: 0.00025
	[    5] t: 0.02400 - deltat: 0.00025
[   98] t: 0.02425 - deltat: 0.00025
	[    1] t: 0.02425 - deltat: 0.00025
	[    2] t: 0.02425 - deltat: 0.00025
	[    3] t: 0.02425 - deltat: 0.00025
	[    4] t: 0.02425 - deltat: 0.00025
	[    5] t: 0.02425 - deltat: 0.00025
[   99] t: 0.02450 - deltat: 0.00025
	[    1] t: 0.02450 - deltat: 0.00025
	[    2] t: 0.02450 - deltat: 0.00025
	[    3] t: 0.02450 - deltat: 0.00025
	[    4] t: 0.02450 - deltat: 0.00025
	[    5] t: 0.02450 - deltat: 0.00025
[  100] t: 0.02475 - deltat: 0.00025
	[    1] t: 0.02475 - deltat: 0.00025
	[    2] t: 0.02475 - deltat: 0.00025
	[    3] t: 0.02475 - deltat: 0.00025
	[    4] t: 0.02475 - deltat: 0.00025
	[    5] t: 0.02475 - deltat: 0.00025
[  101] t: 0.02500 - deltat: 0.00025
	[    1] t: 0.02500 - deltat: 0.00025
	[    2] t: 0.02500 - deltat: 0.00025
	[    3] t: 0.02500 - deltat: 0.00025
	[    4] t: 0.02500 - deltat: 0.00025
	[    5] t: 0.02500 - deltat: 0.00025
[  102] t: 0.02525 - deltat: 0.00025
	[    1] t: 0.02525 - deltat: 0.00025
	[    2] t: 0.02525 - deltat: 0.00025
	[    3] t: 0.02525 - deltat: 0.00025
	[    4] t: 0.02525 - deltat: 0.00025
	[    5] t: 0.02525 - deltat: 0.00025
[  103] t: 0.02550 - deltat: 0.00025
	[    1] t: 0.02550 - deltat: 0.00025
	[    2] t: 0.02550 - deltat: 0.00025
	[    3] t: 0.02550 - deltat: 0.00025
	[    4] t: 0.02550 - deltat: 0.00025
	[    5] t: 0.02550 - deltat: 0.00025
[  104] t: 0.02575 - deltat: 0.00025
	[    1] t: 0.02575 - deltat: 0.00025
	[    2] t: 0.02575 - deltat: 0.00025
	[    3] t: 0.02575 - deltat: 0.00025
	[    4] t: 0.02575 - deltat: 0.00025
	[    5] t: 0.02575 - deltat: 0.00025
[  105] t: 0.02600 - deltat: 0.00025
	[    1] t: 0.02600 - deltat: 0.00025
	[    2] t: 0.02600 - deltat: 0.00025
	[    3] t: 0.02600 - deltat: 0.00025
	[    4] t: 0.02600 - deltat: 0.00025
	[    5] t: 0.02600 - deltat: 0.00025
[  106] t: 0.02625 - deltat: 0.00025
	[    1] t: 0.02625 - deltat: 0.00025
	[    2] t: 0.02625 - deltat: 0.00025
	[    3] t: 0.02625 - deltat: 0.00025
	[    4] t: 0.02625 - deltat: 0.00025
	[    5] t: 0.02625 - deltat: 0.00025
[  107] t: 0.02650 - deltat: 0.00025
	[    1] t: 0.02650 - deltat: 0.00025
	[    2] t: 0.02650 - deltat: 0.00025
	[    3] t: 0.02650 - deltat: 0.00025
	[    4] t: 0.02650 - deltat: 0.00025
	[    5] t: 0.02650 - deltat: 0.00025
[  108] t: 0.02675 - deltat: 0.00025
	[    1] t: 0.02675 - deltat: 0.00025
	[    2] t: 0.02675 - deltat: 0.00025
	[    3] t: 0.02675 - deltat: 0.00025
	[    4] t: 0.02675 - deltat: 0.00025
	[    5] t: 0.02675 - deltat: 0.00025
[  109] t: 0.02700 - deltat: 0.00025
	[    1] t: 0.02700 - deltat: 0.00025
	[    2] t: 0.02700 - deltat: 0.00025
	[    3] t: 0.02700 - deltat: 0.00025
	[    4] t: 0.02700 - deltat: 0.00025
	[    5] t: 0.02700 - deltat: 0.00025
[  110] t: 0.02725 - deltat: 0.00025
	[    1] t: 0.02725 - deltat: 0.00025
	[    2] t: 0.02725 - deltat: 0.00025
	[    3] t: 0.02725 - deltat: 0.00025
	[    4] t: 0.02725 - deltat: 0.00025
	[    5] t: 0.02725 - deltat: 0.00025
[  111] t: 0.02750 - deltat: 0.00025
	[    1] t: 0.02750 - deltat: 0.00025
	[    2] t: 0.02750 - deltat: 0.00025
	[    3] t: 0.02750 - deltat: 0.00025
	[    4] t: 0.02750 - deltat: 0.00025
	[    5] t: 0.02750 - deltat: 0.00025
[  112] t: 0.02775 - deltat: 0.00025
	[    1] t: 0.02775 - deltat: 0.00025
	[    2] t: 0.02775 - deltat: 0.00025
	[    3] t: 0.02775 - deltat: 0.00025
	[    4] t: 0.02775 - deltat: 0.00025
	[    5] t: 0.02775 - deltat: 0.00025
[  113] t: 0.02800 - deltat: 0.00025
	[    1] t: 0.02800 - deltat: 0.00025
	[    2] t: 0.02800 - deltat: 0.00025
	[    3] t: 0.02800 - deltat: 0.00025
	[    4] t: 0.02800 - deltat: 0.00025
	[    5] t: 0.02800 - deltat: 0.00025
[  114] t: 0.02825 - deltat: 0.00025
	[    1] t: 0.02825 - deltat: 0.00025
	[    2] t: 0.02825 - deltat: 0.00025
	[    3] t: 0.02825 - deltat: 0.00025
	[    4] t: 0.02825 - deltat: 0.00025
	[    5] t: 0.02825 - deltat: 0.00025
[  115] t: 0.02850 - deltat: 0.00025
	[    1] t: 0.02850 - deltat: 0.00025
	[    2] t: 0.02850 - deltat: 0.00025
	[    3] t: 0.02850 - deltat: 0.00025
	[    4] t: 0.02850 - deltat: 0.00025
[  116] t: 0.02875 - deltat: 0.00025
	[    1] t: 0.02875 - deltat: 0.00025
	[    2] t: 0.02875 - deltat: 0.00025
	[    3] t: 0.02875 - deltat: 0.00025
	[    4] t: 0.02875 - deltat: 0.00025
[  117] t: 0.02900 - deltat: 0.00025
	[    1] t: 0.02900 - deltat: 0.00025
	[    2] t: 0.02900 - deltat: 0.00025
	[    3] t: 0.02900 - deltat: 0.00025
	[    4] t: 0.02900 - deltat: 0.00025
[  118] t: 0.02925 - deltat: 0.00025
	[    1] t: 0.02925 - deltat: 0.00025
	[    2] t: 0.02925 - deltat: 0.00025
	[    3] t: 0.02925 - deltat: 0.00025
	[    4] t: 0.02925 - deltat: 0.00025
[  119] t: 0.02950 - deltat: 0.00025
	[    1] t: 0.02950 - deltat: 0.00025
	[    2] t: 0.02950 - deltat: 0.00025
	[    3] t: 0.02950 - deltat: 0.00025
	[    4] t: 0.02950 - deltat: 0.00025
[  120] t: 0.02975 - deltat: 0.00025
	[    1] t: 0.02975 - deltat: 0.00025
	[    2] t: 0.02975 - deltat: 0.00025
	[    3] t: 0.02975 - deltat: 0.00025
	[    4] t: 0.02975 - deltat: 0.00025
[  121] t: 0.03000 - deltat: 0.00025
	[    1] t: 0.03000 - deltat: 0.00025
	[    2] t: 0.03000 - deltat: 0.00025
	[    3] t: 0.03000 - deltat: 0.00025
	[    4] t: 0.03000 - deltat: 0.00025
[  122] t: 0.03025 - deltat: 0.00025
	[    1] t: 0.03025 - deltat: 0.00025
	[    2] t: 0.03025 - deltat: 0.00025
	[    3] t: 0.03025 - deltat: 0.00025
	[    4] t: 0.03025 - deltat: 0.00025
[  123] t: 0.03050 - deltat: 0.00025
	[    1] t: 0.03050 - deltat: 0.00025
	[    2] t: 0.03050 - deltat: 0.00025
	[    3] t: 0.03050 - deltat: 0.00025
	[    4] t: 0.03050 - deltat: 0.00025
[  124] t: 0.03075 - deltat: 0.00025
	[    1] t: 0.03075 - deltat: 0.00025
	[    2] t: 0.03075 - deltat: 0.00025
	[    3] t: 0.03075 - deltat: 0.00025
	[    4] t: 0.03075 - deltat: 0.00025
[  125] t: 0.03100 - deltat: 0.00025
	[    1] t: 0.03100 - deltat: 0.00025
	[    2] t: 0.03100 - deltat: 0.00025
	[    3] t: 0.03100 - deltat: 0.00025
	[    4] t: 0.03100 - deltat: 0.00025
[  126] t: 0.03125 - deltat: 0.00025
	[    1] t: 0.03125 - deltat: 0.00025
	[    2] t: 0.03125 - deltat: 0.00025
	[    3] t: 0.03125 - deltat: 0.00025
	[    4] t: 0.03125 - deltat: 0.00025
[  127] t: 0.03150 - deltat: 0.00025
	[    1] t: 0.03150 - deltat: 0.00025
	[    2] t: 0.03150 - deltat: 0.00025
	[    3] t: 0.03150 - deltat: 0.00025
	[    4] t: 0.03150 - deltat: 0.00025
[  128] t: 0.03175 - deltat: 0.00025
	[    1] t: 0.03175 - deltat: 0.00025
	[    2] t: 0.03175 - deltat: 0.00025
	[    3] t: 0.03175 - deltat: 0.00025
	[    4] t: 0.03175 - deltat: 0.00025
[  129] t: 0.03200 - deltat: 0.00025
	[    1] t: 0.03200 - deltat: 0.00025
	[    2] t: 0.03200 - deltat: 0.00025
	[    3] t: 0.03200 - deltat: 0.00025
	[    4] t: 0.03200 - deltat: 0.00025
[  130] t: 0.03225 - deltat: 0.00025
	[    1] t: 0.03225 - deltat: 0.00025
	[    2] t: 0.03225 - deltat: 0.00025
	[    3] t: 0.03225 - deltat: 0.00025
	[    4] t: 0.03225 - deltat: 0.00025
[  131] t: 0.03250 - deltat: 0.00025
	[    1] t: 0.03250 - deltat: 0.00025
	[    2] t: 0.03250 - deltat: 0.00025
	[    3] t: 0.03250 - deltat: 0.00025
	[    4] t: 0.03250 - deltat: 0.00025
[  132] t: 0.03275 - deltat: 0.00025
	[    1] t: 0.03275 - deltat: 0.00025
	[    2] t: 0.03275 - deltat: 0.00025
	[    3] t: 0.03275 - deltat: 0.00025
	[    4] t: 0.03275 - deltat: 0.00025
[  133] t: 0.03300 - deltat: 0.00025
	[    1] t: 0.03300 - deltat: 0.00025
	[    2] t: 0.03300 - deltat: 0.00025
	[    3] t: 0.03300 - deltat: 0.00025
	[    4] t: 0.03300 - deltat: 0.00025
[  134] t: 0.03325 - deltat: 0.00025
	[    1] t: 0.03325 - deltat: 0.00025
	[    2] t: 0.03325 - deltat: 0.00025
	[    3] t: 0.03325 - deltat: 0.00025
	[    4] t: 0.03325 - deltat: 0.00025
[  135] t: 0.03350 - deltat: 0.00025
	[    1] t: 0.03350 - deltat: 0.00025
	[    2] t: 0.03350 - deltat: 0.00025
	[    3] t: 0.03350 - deltat: 0.00025
	[    4] t: 0.03350 - deltat: 0.00025
[  136] t: 0.03375 - deltat: 0.00025
	[    1] t: 0.03375 - deltat: 0.00025
	[    2] t: 0.03375 - deltat: 0.00025
	[    3] t: 0.03375 - deltat: 0.00025
	[    4] t: 0.03375 - deltat: 0.00025
[  137] t: 0.03400 - deltat: 0.00025
	[    1] t: 0.03400 - deltat: 0.00025
	[    2] t: 0.03400 - deltat: 0.00025
	[    3] t: 0.03400 - deltat: 0.00025
	[    4] t: 0.03400 - deltat: 0.00025
[  138] t: 0.03425 - deltat: 0.00025
	[    1] t: 0.03425 - deltat: 0.00025
	[    2] t: 0.03425 - deltat: 0.00025
	[    3] t: 0.03425 - deltat: 0.00025
	[    4] t: 0.03425 - deltat: 0.00025
[  139] t: 0.03450 - deltat: 0.00025
	[    1] t: 0.03450 - deltat: 0.00025
	[    2] t: 0.03450 - deltat: 0.00025
	[    3] t: 0.03450 - deltat: 0.00025
	[    4] t: 0.03450 - deltat: 0.00025
[  140] t: 0.03475 - deltat: 0.00025
	[    1] t: 0.03475 - deltat: 0.00025
	[    2] t: 0.03475 - deltat: 0.00025
	[    3] t: 0.03475 - deltat: 0.00025
	[    4] t: 0.03475 - deltat: 0.00025
[  141] t: 0.03500 - deltat: 0.00025
	[    1] t: 0.03500 - deltat: 0.00025
	[    2] t: 0.03500 - deltat: 0.00025
	[    3] t: 0.03500 - deltat: 0.00025
	[    4] t: 0.03500 - deltat: 0.00025
[  142] t: 0.03525 - deltat: 0.00025
	[    1] t: 0.03525 - deltat: 0.00025
	[    2] t: 0.03525 - deltat: 0.00025
	[    3] t: 0.03525 - deltat: 0.00025
	[    4] t: 0.03525 - deltat: 0.00025
[  143] t: 0.03550 - deltat: 0.00025
	[    1] t: 0.03550 - deltat: 0.00025
	[    2] t: 0.03550 - deltat: 0.00025
	[    3] t: 0.03550 - deltat: 0.00025
	[    4] t: 0.03550 - deltat: 0.00025
[  144] t: 0.03575 - deltat: 0.00025
	[    1] t: 0.03575 - deltat: 0.00025
	[    2] t: 0.03575 - deltat: 0.00025
	[    3] t: 0.03575 - deltat: 0.00025
	[    4] t: 0.03575 - deltat: 0.00025
[  145] t: 0.03600 - deltat: 0.00025
	[    1] t: 0.03600 - deltat: 0.00025
	[    2] t: 0.03600 - deltat: 0.00025
	[    3] t: 0.03600 - deltat: 0.00025
	[    4] t: 0.03600 - deltat: 0.00025
[  146] t: 0.03625 - deltat: 0.00025
	[    1] t: 0.03625 - deltat: 0.00025
	[    2] t: 0.03625 - deltat: 0.00025
	[    3] t: 0.03625 - deltat: 0.00025
	[    4] t: 0.03625 - deltat: 0.00025
[  147] t: 0.03650 - deltat: 0.00025
	[    1] t: 0.03650 - deltat: 0.00025
	[    2] t: 0.03650 - deltat: 0.00025
	[    3] t: 0.03650 - deltat: 0.00025
	[    4] t: 0.03650 - deltat: 0.00025
[  148] t: 0.03675 - deltat: 0.00025
	[    1] t: 0.03675 - deltat: 0.00025
	[    2] t: 0.03675 - deltat: 0.00025
	[    3] t: 0.03675 - deltat: 0.00025
	[    4] t: 0.03675 - deltat: 0.00025
[  149] t: 0.03700 - deltat: 0.00025
	[    1] t: 0.03700 - deltat: 0.00025
	[    2] t: 0.03700 - deltat: 0.00025
	[    3] t: 0.03700 - deltat: 0.00025
	[    4] t: 0.03700 - deltat: 0.00025
[  150] t: 0.03725 - deltat: 0.00025
	[    1] t: 0.03725 - deltat: 0.00025
	[    2] t: 0.03725 - deltat: 0.00025
	[    3] t: 0.03725 - deltat: 0.00025
	[    4] t: 0.03725 - deltat: 0.00025
[  151] t: 0.03750 - deltat: 0.00025
	[    1] t: 0.03750 - deltat: 0.00025
	[    2] t: 0.03750 - deltat: 0.00025
	[    3] t: 0.03750 - deltat: 0.00025
	[    4] t: 0.03750 - deltat: 0.00025
[  152] t: 0.03775 - deltat: 0.00025
	[    1] t: 0.03775 - deltat: 0.00025
	[    2] t: 0.03775 - deltat: 0.00025
	[    3] t: 0.03775 - deltat: 0.00025
	[    4] t: 0.03775 - deltat: 0.00025
[  153] t: 0.03800 - deltat: 0.00025
	[    1] t: 0.03800 - deltat: 0.00025
	[    2] t: 0.03800 - deltat: 0.00025
	[    3] t: 0.03800 - deltat: 0.00025
	[    4] t: 0.03800 - deltat: 0.00025
[  154] t: 0.03825 - deltat: 0.00025
	[    1] t: 0.03825 - deltat: 0.00025
	[    2] t: 0.03825 - deltat: 0.00025
	[    3] t: 0.03825 - deltat: 0.00025
	[    4] t: 0.03825 - deltat: 0.00025
[  155] t: 0.03850 - deltat: 0.00025
	[    1] t: 0.03850 - deltat: 0.00025
	[    2] t: 0.03850 - deltat: 0.00025
	[    3] t: 0.03850 - deltat: 0.00025
	[    4] t: 0.03850 - deltat: 0.00025
[  156] t: 0.03875 - deltat: 0.00025
	[    1] t: 0.03875 - deltat: 0.00025
	[    2] t: 0.03875 - deltat: 0.00025
	[    3] t: 0.03875 - deltat: 0.00025
	[    4] t: 0.03875 - deltat: 0.00025
[  157] t: 0.03900 - deltat: 0.00025
	[    1] t: 0.03900 - deltat: 0.00025
	[    2] t: 0.03900 - deltat: 0.00025
	[    3] t: 0.03900 - deltat: 0.00025
	[    4] t: 0.03900 - deltat: 0.00025
[  158] t: 0.03925 - deltat: 0.00025
	[    1] t: 0.03925 - deltat: 0.00025
	[    2] t: 0.03925 - deltat: 0.00025
	[    3] t: 0.03925 - deltat: 0.00025
	[    4] t: 0.03925 - deltat: 0.00025
[  159] t: 0.03950 - deltat: 0.00025
	[    1] t: 0.03950 - deltat: 0.00025
	[    2] t: 0.03950 - deltat: 0.00025
	[    3] t: 0.03950 - deltat: 0.00025
	[    4] t: 0.03950 - deltat: 0.00025
[  160] t: 0.03975 - deltat: 0.00025
	[    1] t: 0.03975 - deltat: 0.00025
	[    2] t: 0.03975 - deltat: 0.00025
	[    3] t: 0.03975 - deltat: 0.00025
	[    4] t: 0.03975 - deltat: 0.00025
[  161] t: 0.04000 - deltat: 0.00025
	[    1] t: 0.04000 - deltat: 0.00025
	[    2] t: 0.04000 - deltat: 0.00025
	[    3] t: 0.04000 - deltat: 0.00025
	[    4] t: 0.04000 - deltat: 0.00025
[  162] t: 0.04025 - deltat: 0.00025
	[    1] t: 0.04025 - deltat: 0.00025
	[    2] t: 0.04025 - deltat: 0.00025
	[    3] t: 0.04025 - deltat: 0.00025
	[    4] t: 0.04025 - deltat: 0.00025
[  163] t: 0.04050 - deltat: 0.00025
	[    1] t: 0.04050 - deltat: 0.00025
	[    2] t: 0.04050 - deltat: 0.00025
	[    3] t: 0.04050 - deltat: 0.00025
	[    4] t: 0.04050 - deltat: 0.00025
[  164] t: 0.04075 - deltat: 0.00025
	[    1] t: 0.04075 - deltat: 0.00025
	[    2] t: 0.04075 - deltat: 0.00025
	[    3] t: 0.04075 - deltat: 0.00025
	[    4] t: 0.04075 - deltat: 0.00025
[  165] t: 0.04100 - deltat: 0.00025
	[    1] t: 0.04100 - deltat: 0.00025
	[    2] t: 0.04100 - deltat: 0.00025
	[    3] t: 0.04100 - deltat: 0.00025
	[    4] t: 0.04100 - deltat: 0.00025
[  166] t: 0.04125 - deltat: 0.00025
	[    1] t: 0.04125 - deltat: 0.00025
	[    2] t: 0.04125 - deltat: 0.00025
	[    3] t: 0.04125 - deltat: 0.00025
	[    4] t: 0.04125 - deltat: 0.00025
[  167] t: 0.04150 - deltat: 0.00025
	[    1] t: 0.04150 - deltat: 0.00025
	[    2] t: 0.04150 - deltat: 0.00025
	[    3] t: 0.04150 - deltat: 0.00025
	[    4] t: 0.04150 - deltat: 0.00025
[  168] t: 0.04175 - deltat: 0.00025
	[    1] t: 0.04175 - deltat: 0.00025
	[    2] t: 0.04175 - deltat: 0.00025
	[    3] t: 0.04175 - deltat: 0.00025
	[    4] t: 0.04175 - deltat: 0.00025
[  169] t: 0.04200 - deltat: 0.00025
	[    1] t: 0.04200 - deltat: 0.00025
	[    2] t: 0.04200 - deltat: 0.00025
	[    3] t: 0.04200 - deltat: 0.00025
	[    4] t: 0.04200 - deltat: 0.00025
[  170] t: 0.04225 - deltat: 0.00025
	[    1] t: 0.04225 - deltat: 0.00025
	[    2] t: 0.04225 - deltat: 0.00025
	[    3] t: 0.04225 - deltat: 0.00025
	[    4] t: 0.04225 - deltat: 0.00025
[  171] t: 0.04250 - deltat: 0.00025
	[    1] t: 0.04250 - deltat: 0.00025
	[    2] t: 0.04250 - deltat: 0.00025
	[    3] t: 0.04250 - deltat: 0.00025
	[    4] t: 0.04250 - deltat: 0.00025
[  172] t: 0.04275 - deltat: 0.00025
	[    1] t: 0.04275 - deltat: 0.00025
	[    2] t: 0.04275 - deltat: 0.00025
	[    3] t: 0.04275 - deltat: 0.00025
	[    4] t: 0.04275 - deltat: 0.00025
[  173] t: 0.04300 - deltat: 0.00025
	[    1] t: 0.04300 - deltat: 0.00025
	[    2] t: 0.04300 - deltat: 0.00025
	[    3] t: 0.04300 - deltat: 0.00025
	[    4] t: 0.04300 - deltat: 0.00025
[  174] t: 0.04325 - deltat: 0.00025
	[    1] t: 0.04325 - deltat: 0.00025
	[    2] t: 0.04325 - deltat: 0.00025
	[    3] t: 0.04325 - deltat: 0.00025
	[    4] t: 0.04325 - deltat: 0.00025
[  175] t: 0.04350 - deltat: 0.00025
	[    1] t: 0.04350 - deltat: 0.00025
	[    2] t: 0.04350 - deltat: 0.00025
	[    3] t: 0.04350 - deltat: 0.00025
	[    4] t: 0.04350 - deltat: 0.00025
[  176] t: 0.04375 - deltat: 0.00025
	[    1] t: 0.04375 - deltat: 0.00025
	[    2] t: 0.04375 - deltat: 0.00025
	[    3] t: 0.04375 - deltat: 0.00025
	[    4] t: 0.04375 - deltat: 0.00025
[  177] t: 0.04400 - deltat: 0.00025
	[    1] t: 0.04400 - deltat: 0.00025
	[    2] t: 0.04400 - deltat: 0.00025
	[    3] t: 0.04400 - deltat: 0.00025
	[    4] t: 0.04400 - deltat: 0.00025
[  178] t: 0.04425 - deltat: 0.00025
	[    1] t: 0.04425 - deltat: 0.00025
	[    2] t: 0.04425 - deltat: 0.00025
	[    3] t: 0.04425 - deltat: 0.00025
	[    4] t: 0.04425 - deltat: 0.00025
[  179] t: 0.04450 - deltat: 0.00025
	[    1] t: 0.04450 - deltat: 0.00025
	[    2] t: 0.04450 - deltat: 0.00025
	[    3] t: 0.04450 - deltat: 0.00025
	[    4] t: 0.04450 - deltat: 0.00025
[  180] t: 0.04475 - deltat: 0.00025
	[    1] t: 0.04475 - deltat: 0.00025
	[    2] t: 0.04475 - deltat: 0.00025
	[    3] t: 0.04475 - deltat: 0.00025
	[    4] t: 0.04475 - deltat: 0.00025
[  181] t: 0.04500 - deltat: 0.00025
	[    1] t: 0.04500 - deltat: 0.00025
	[    2] t: 0.04500 - deltat: 0.00025
	[    3] t: 0.04500 - deltat: 0.00025
	[    4] t: 0.04500 - deltat: 0.00025
[  182] t: 0.04525 - deltat: 0.00025
	[    1] t: 0.04525 - deltat: 0.00025
	[    2] t: 0.04525 - deltat: 0.00025
	[    3] t: 0.04525 - deltat: 0.00025
	[    4] t: 0.04525 - deltat: 0.00025
[  183] t: 0.04550 - deltat: 0.00025
	[    1] t: 0.04550 - deltat: 0.00025
	[    2] t: 0.04550 - deltat: 0.00025
	[    3] t: 0.04550 - deltat: 0.00025
	[    4] t: 0.04550 - deltat: 0.00025
[  184] t: 0.04575 - deltat: 0.00025
	[    1] t: 0.04575 - deltat: 0.00025
	[    2] t: 0.04575 - deltat: 0.00025
	[    3] t: 0.04575 - deltat: 0.00025
	[    4] t: 0.04575 - deltat: 0.00025
[  185] t: 0.04600 - deltat: 0.00025
	[    1] t: 0.04600 - deltat: 0.00025
	[    2] t: 0.04600 - deltat: 0.00025
	[    3] t: 0.04600 - deltat: 0.00025
	[    4] t: 0.04600 - deltat: 0.00025
[  186] t: 0.04625 - deltat: 0.00025
	[    1] t: 0.04625 - deltat: 0.00025
	[    2] t: 0.04625 - deltat: 0.00025
	[    3] t: 0.04625 - deltat: 0.00025
	[    4] t: 0.04625 - deltat: 0.00025
[  187] t: 0.04650 - deltat: 0.00025
	[    1] t: 0.04650 - deltat: 0.00025
	[    2] t: 0.04650 - deltat: 0.00025
	[    3] t: 0.04650 - deltat: 0.00025
	[    4] t: 0.04650 - deltat: 0.00025
[  188] t: 0.04675 - deltat: 0.00025
	[    1] t: 0.04675 - deltat: 0.00025
	[    2] t: 0.04675 - deltat: 0.00025
	[    3] t: 0.04675 - deltat: 0.00025
	[    4] t: 0.04675 - deltat: 0.00025
[  189] t: 0.04700 - deltat: 0.00025
	[    1] t: 0.04700 - deltat: 0.00025
	[    2] t: 0.04700 - deltat: 0.00025
	[    3] t: 0.04700 - deltat: 0.00025
	[    4] t: 0.04700 - deltat: 0.00025
[  190] t: 0.04725 - deltat: 0.00025
	[    1] t: 0.04725 - deltat: 0.00025
	[    2] t: 0.04725 - deltat: 0.00025
	[    3] t: 0.04725 - deltat: 0.00025
	[    4] t: 0.04725 - deltat: 0.00025
[  191] t: 0.04750 - deltat: 0.00025
	[    1] t: 0.04750 - deltat: 0.00025
	[    2] t: 0.04750 - deltat: 0.00025
	[    3] t: 0.04750 - deltat: 0.00025
	[    4] t: 0.04750 - deltat: 0.00025
[  192] t: 0.04775 - deltat: 0.00025
	[    1] t: 0.04775 - deltat: 0.00025
	[    2] t: 0.04775 - deltat: 0.00025
	[    3] t: 0.04775 - deltat: 0.00025
	[    4] t: 0.04775 - deltat: 0.00025
[  193] t: 0.04800 - deltat: 0.00025
	[    1] t: 0.04800 - deltat: 0.00025
	[    2] t: 0.04800 - deltat: 0.00025
	[    3] t: 0.04800 - deltat: 0.00025
	[    4] t: 0.04800 - deltat: 0.00025
[  194] t: 0.04825 - deltat: 0.00025
	[    1] t: 0.04825 - deltat: 0.00025
	[    2] t: 0.04825 - deltat: 0.00025
	[    3] t: 0.04825 - deltat: 0.00025
	[    4] t: 0.04825 - deltat: 0.00025
[  195] t: 0.04850 - deltat: 0.00025
	[    1] t: 0.04850 - deltat: 0.00025
	[    2] t: 0.04850 - deltat: 0.00025
	[    3] t: 0.04850 - deltat: 0.00025
	[    4] t: 0.04850 - deltat: 0.00025
[  196] t: 0.04875 - deltat: 0.00025
	[    1] t: 0.04875 - deltat: 0.00025
	[    2] t: 0.04875 - deltat: 0.00025
	[    3] t: 0.04875 - deltat: 0.00025
	[    4] t: 0.04875 - deltat: 0.00025
[  197] t: 0.04900 - deltat: 0.00025
	[    1] t: 0.04900 - deltat: 0.00025
	[    2] t: 0.04900 - deltat: 0.00025
	[    3] t: 0.04900 - deltat: 0.00025
	[    4] t: 0.04900 - deltat: 0.00025
[  198] t: 0.04925 - deltat: 0.00025
	[    1] t: 0.04925 - deltat: 0.00025
	[    2] t: 0.04925 - deltat: 0.00025
	[    3] t: 0.04925 - deltat: 0.00025
	[    4] t: 0.04925 - deltat: 0.00025
[  199] t: 0.04950 - deltat: 0.00025
	[    1] t: 0.04950 - deltat: 0.00025
	[    2] t: 0.04950 - deltat: 0.00025
	[    3] t: 0.04950 - deltat: 0.00025
	[    4] t: 0.04950 - deltat: 0.00025
[  200] t: 0.04975 - deltat: 0.00025
	[    1] t: 0.04975 - deltat: 0.00025
	[    2] t: 0.04975 - deltat: 0.00025
	[    3] t: 0.04975 - deltat: 0.00025
	[    4] t: 0.04975 - deltat: 0.00025
[  201] t: 0.05000 - deltat: 0.00025
	[    1] t: 0.05000 - deltat: 0.00025
	[    2] t: 0.05000 - deltat: 0.00025
	[    3] t: 0.05000 - deltat: 0.00025
	[    4] t: 0.05000 - deltat: 0.00025
[  202] t: 0.05025 - deltat: 0.00025
	[    1] t: 0.05025 - deltat: 0.00025
	[    2] t: 0.05025 - deltat: 0.00025
	[    3] t: 0.05025 - deltat: 0.00025
	[    4] t: 0.05025 - deltat: 0.00025
[  203] t: 0.05050 - deltat: 0.00025
	[    1] t: 0.05050 - deltat: 0.00025
	[    2] t: 0.05050 - deltat: 0.00025
	[    3] t: 0.05050 - deltat: 0.00025
	[    4] t: 0.05050 - deltat: 0.00025
[  204] t: 0.05075 - deltat: 0.00025
	[    1] t: 0.05075 - deltat: 0.00025
	[    2] t: 0.05075 - deltat: 0.00025
	[    3] t: 0.05075 - deltat: 0.00025
	[    4] t: 0.05075 - deltat: 0.00025
[  205] t: 0.05100 - deltat: 0.00025
	[    1] t: 0.05100 - deltat: 0.00025
	[    2] t: 0.05100 - deltat: 0.00025
	[    3] t: 0.05100 - deltat: 0.00025
	[    4] t: 0.05100 - deltat: 0.00025
[  206] t: 0.05125 - deltat: 0.00025
	[    1] t: 0.05125 - deltat: 0.00025
	[    2] t: 0.05125 - deltat: 0.00025
	[    3] t: 0.05125 - deltat: 0.00025
	[    4] t: 0.05125 - deltat: 0.00025
[  207] t: 0.05150 - deltat: 0.00025
	[    1] t: 0.05150 - deltat: 0.00025
	[    2] t: 0.05150 - deltat: 0.00025
	[    3] t: 0.05150 - deltat: 0.00025
	[    4] t: 0.05150 - deltat: 0.00025
[  208] t: 0.05175 - deltat: 0.00025
	[    1] t: 0.05175 - deltat: 0.00025
	[    2] t: 0.05175 - deltat: 0.00025
	[    3] t: 0.05175 - deltat: 0.00025
	[    4] t: 0.05175 - deltat: 0.00025
[  209] t: 0.05200 - deltat: 0.00025
	[    1] t: 0.05200 - deltat: 0.00025
	[    2] t: 0.05200 - deltat: 0.00025
	[    3] t: 0.05200 - deltat: 0.00025
	[    4] t: 0.05200 - deltat: 0.00025
[  210] t: 0.05225 - deltat: 0.00025
	[    1] t: 0.05225 - deltat: 0.00025
	[    2] t: 0.05225 - deltat: 0.00025
	[    3] t: 0.05225 - deltat: 0.00025
	[    4] t: 0.05225 - deltat: 0.00025
[  211] t: 0.05250 - deltat: 0.00025
	[    1] t: 0.05250 - deltat: 0.00025
	[    2] t: 0.05250 - deltat: 0.00025
	[    3] t: 0.05250 - deltat: 0.00025
	[    4] t: 0.05250 - deltat: 0.00025
[  212] t: 0.05275 - deltat: 0.00025
	[    1] t: 0.05275 - deltat: 0.00025
	[    2] t: 0.05275 - deltat: 0.00025
	[    3] t: 0.05275 - deltat: 0.00025
	[    4] t: 0.05275 - deltat: 0.00025
[  213] t: 0.05300 - deltat: 0.00025
	[    1] t: 0.05300 - deltat: 0.00025
	[    2] t: 0.05300 - deltat: 0.00025
	[    3] t: 0.05300 - deltat: 0.00025
	[    4] t: 0.05300 - deltat: 0.00025
[  214] t: 0.05325 - deltat: 0.00025
	[    1] t: 0.05325 - deltat: 0.00025
	[    2] t: 0.05325 - deltat: 0.00025
	[    3] t: 0.05325 - deltat: 0.00025
	[    4] t: 0.05325 - deltat: 0.00025
[  215] t: 0.05350 - deltat: 0.00025
	[    1] t: 0.05350 - deltat: 0.00025
	[    2] t: 0.05350 - deltat: 0.00025
	[    3] t: 0.05350 - deltat: 0.00025
	[    4] t: 0.05350 - deltat: 0.00025
[  216] t: 0.05375 - deltat: 0.00025
	[    1] t: 0.05375 - deltat: 0.00025
	[    2] t: 0.05375 - deltat: 0.00025
	[    3] t: 0.05375 - deltat: 0.00025
	[    4] t: 0.05375 - deltat: 0.00025
[  217] t: 0.05400 - deltat: 0.00025
	[    1] t: 0.05400 - deltat: 0.00025
	[    2] t: 0.05400 - deltat: 0.00025
	[    3] t: 0.05400 - deltat: 0.00025
	[    4] t: 0.05400 - deltat: 0.00025
[  218] t: 0.05425 - deltat: 0.00025
	[    1] t: 0.05425 - deltat: 0.00025
	[    2] t: 0.05425 - deltat: 0.00025
	[    3] t: 0.05425 - deltat: 0.00025
	[    4] t: 0.05425 - deltat: 0.00025
[  219] t: 0.05450 - deltat: 0.00025
	[    1] t: 0.05450 - deltat: 0.00025
	[    2] t: 0.05450 - deltat: 0.00025
	[    3] t: 0.05450 - deltat: 0.00025
	[    4] t: 0.05450 - deltat: 0.00025
[  220] t: 0.05475 - deltat: 0.00025
	[    1] t: 0.05475 - deltat: 0.00025
	[    2] t: 0.05475 - deltat: 0.00025
	[    3] t: 0.05475 - deltat: 0.00025
	[    4] t: 0.05475 - deltat: 0.00025
[  221] t: 0.05500 - deltat: 0.00025
	[    1] t: 0.05500 - deltat: 0.00025
	[    2] t: 0.05500 - deltat: 0.00025
	[    3] t: 0.05500 - deltat: 0.00025
	[    4] t: 0.05500 - deltat: 0.00025
[  222] t: 0.05525 - deltat: 0.00025
	[    1] t: 0.05525 - deltat: 0.00025
	[    2] t: 0.05525 - deltat: 0.00025
	[    3] t: 0.05525 - deltat: 0.00025
	[    4] t: 0.05525 - deltat: 0.00025
[  223] t: 0.05550 - deltat: 0.00025
	[    1] t: 0.05550 - deltat: 0.00025
	[    2] t: 0.05550 - deltat: 0.00025
	[    3] t: 0.05550 - deltat: 0.00025
	[    4] t: 0.05550 - deltat: 0.00025
[  224] t: 0.05575 - deltat: 0.00025
	[    1] t: 0.05575 - deltat: 0.00025
	[    2] t: 0.05575 - deltat: 0.00025
	[    3] t: 0.05575 - deltat: 0.00025
	[    4] t: 0.05575 - deltat: 0.00025
[  225] t: 0.05600 - deltat: 0.00025
	[    1] t: 0.05600 - deltat: 0.00025
	[    2] t: 0.05600 - deltat: 0.00025
	[    3] t: 0.05600 - deltat: 0.00025
	[    4] t: 0.05600 - deltat: 0.00025
[  226] t: 0.05625 - deltat: 0.00025
	[    1] t: 0.05625 - deltat: 0.00025
	[    2] t: 0.05625 - deltat: 0.00025
	[    3] t: 0.05625 - deltat: 0.00025
	[    4] t: 0.05625 - deltat: 0.00025
[  227] t: 0.05650 - deltat: 0.00025
	[    1] t: 0.05650 - deltat: 0.00025
	[    2] t: 0.05650 - deltat: 0.00025
	[    3] t: 0.05650 - deltat: 0.00025
	[    4] t: 0.05650 - deltat: 0.00025
[  228] t: 0.05675 - deltat: 0.00025
	[    1] t: 0.05675 - deltat: 0.00025
	[    2] t: 0.05675 - deltat: 0.00025
	[    3] t: 0.05675 - deltat: 0.00025
	[    4] t: 0.05675 - deltat: 0.00025
[  229] t: 0.05700 - deltat: 0.00025
	[    1] t: 0.05700 - deltat: 0.00025
	[    2] t: 0.05700 - deltat: 0.00025
	[    3] t: 0.05700 - deltat: 0.00025
	[    4] t: 0.05700 - deltat: 0.00025
[  230] t: 0.05725 - deltat: 0.00025
	[    1] t: 0.05725 - deltat: 0.00025
	[    2] t: 0.05725 - deltat: 0.00025
	[    3] t: 0.05725 - deltat: 0.00025
	[    4] t: 0.05725 - deltat: 0.00025
[  231] t: 0.05750 - deltat: 0.00025
	[    1] t: 0.05750 - deltat: 0.00025
	[    2] t: 0.05750 - deltat: 0.00025
	[    3] t: 0.05750 - deltat: 0.00025
	[    4] t: 0.05750 - deltat: 0.00025
[  232] t: 0.05775 - deltat: 0.00025
	[    1] t: 0.05775 - deltat: 0.00025
	[    2] t: 0.05775 - deltat: 0.00025
	[    3] t: 0.05775 - deltat: 0.00025
	[    4] t: 0.05775 - deltat: 0.00025
[  233] t: 0.05800 - deltat: 0.00025
	[    1] t: 0.05800 - deltat: 0.00025
	[    2] t: 0.05800 - deltat: 0.00025
	[    3] t: 0.05800 - deltat: 0.00025
	[    4] t: 0.05800 - deltat: 0.00025
[  234] t: 0.05825 - deltat: 0.00025
	[    1] t: 0.05825 - deltat: 0.00025
	[    2] t: 0.05825 - deltat: 0.00025
	[    3] t: 0.05825 - deltat: 0.00025
	[    4] t: 0.05825 - deltat: 0.00025
[  235] t: 0.05850 - deltat: 0.00025
	[    1] t: 0.05850 - deltat: 0.00025
	[    2] t: 0.05850 - deltat: 0.00025
	[    3] t: 0.05850 - deltat: 0.00025
	[    4] t: 0.05850 - deltat: 0.00025
[  236] t: 0.05875 - deltat: 0.00025
	[    1] t: 0.05875 - deltat: 0.00025
	[    2] t: 0.05875 - deltat: 0.00025
	[    3] t: 0.05875 - deltat: 0.00025
	[    4] t: 0.05875 - deltat: 0.00025
[  237] t: 0.05900 - deltat: 0.00025
	[    1] t: 0.05900 - deltat: 0.00025
	[    2] t: 0.05900 - deltat: 0.00025
	[    3] t: 0.05900 - deltat: 0.00025
	[    4] t: 0.05900 - deltat: 0.00025
[  238] t: 0.05925 - deltat: 0.00025
	[    1] t: 0.05925 - deltat: 0.00025
	[    2] t: 0.05925 - deltat: 0.00025
	[    3] t: 0.05925 - deltat: 0.00025
	[    4] t: 0.05925 - deltat: 0.00025
[  239] t: 0.05950 - deltat: 0.00025
	[    1] t: 0.05950 - deltat: 0.00025
	[    2] t: 0.05950 - deltat: 0.00025
	[    3] t: 0.05950 - deltat: 0.00025
	[    4] t: 0.05950 - deltat: 0.00025
[  240] t: 0.05975 - deltat: 0.00025
	[    1] t: 0.05975 - deltat: 0.00025
	[    2] t: 0.05975 - deltat: 0.00025
	[    3] t: 0.05975 - deltat: 0.00025
	[    4] t: 0.05975 - deltat: 0.00025
[  241] t: 0.06000 - deltat: 0.00025
	[    1] t: 0.06000 - deltat: 0.00025
	[    2] t: 0.06000 - deltat: 0.00025
	[    3] t: 0.06000 - deltat: 0.00025
	[    4] t: 0.06000 - deltat: 0.00025
[  242] t: 0.06025 - deltat: 0.00025
	[    1] t: 0.06025 - deltat: 0.00025
	[    2] t: 0.06025 - deltat: 0.00025
	[    3] t: 0.06025 - deltat: 0.00025
	[    4] t: 0.06025 - deltat: 0.00025
[  243] t: 0.06050 - deltat: 0.00025
	[    1] t: 0.06050 - deltat: 0.00025
	[    2] t: 0.06050 - deltat: 0.00025
	[    3] t: 0.06050 - deltat: 0.00025
	[    4] t: 0.06050 - deltat: 0.00025
[  244] t: 0.06075 - deltat: 0.00025
	[    1] t: 0.06075 - deltat: 0.00025
	[    2] t: 0.06075 - deltat: 0.00025
	[    3] t: 0.06075 - deltat: 0.00025
	[    4] t: 0.06075 - deltat: 0.00025
[  245] t: 0.06100 - deltat: 0.00025
	[    1] t: 0.06100 - deltat: 0.00025
	[    2] t: 0.06100 - deltat: 0.00025
	[    3] t: 0.06100 - deltat: 0.00025
	[    4] t: 0.06100 - deltat: 0.00025
[  246] t: 0.06125 - deltat: 0.00025
	[    1] t: 0.06125 - deltat: 0.00025
	[    2] t: 0.06125 - deltat: 0.00025
	[    3] t: 0.06125 - deltat: 0.00025
	[    4] t: 0.06125 - deltat: 0.00025
[  247] t: 0.06150 - deltat: 0.00025
	[    1] t: 0.06150 - deltat: 0.00025
	[    2] t: 0.06150 - deltat: 0.00025
	[    3] t: 0.06150 - deltat: 0.00025
	[    4] t: 0.06150 - deltat: 0.00025
[  248] t: 0.06175 - deltat: 0.00025
	[    1] t: 0.06175 - deltat: 0.00025
	[    2] t: 0.06175 - deltat: 0.00025
	[    3] t: 0.06175 - deltat: 0.00025
	[    4] t: 0.06175 - deltat: 0.00025
[  249] t: 0.06200 - deltat: 0.00025
	[    1] t: 0.06200 - deltat: 0.00025
	[    2] t: 0.06200 - deltat: 0.00025
	[    3] t: 0.06200 - deltat: 0.00025
	[    4] t: 0.06200 - deltat: 0.00025
[  250] t: 0.06225 - deltat: 0.00025
	[    1] t: 0.06225 - deltat: 0.00025
	[    2] t: 0.06225 - deltat: 0.00025
	[    3] t: 0.06225 - deltat: 0.00025
	[    4] t: 0.06225 - deltat: 0.00025
[  251] t: 0.06250 - deltat: 0.00025
	[    1] t: 0.06250 - deltat: 0.00025
	[    2] t: 0.06250 - deltat: 0.00025
	[    3] t: 0.06250 - deltat: 0.00025
	[    4] t: 0.06250 - deltat: 0.00025
[  252] t: 0.06275 - deltat: 0.00025
	[    1] t: 0.06275 - deltat: 0.00025
	[    2] t: 0.06275 - deltat: 0.00025
	[    3] t: 0.06275 - deltat: 0.00025
	[    4] t: 0.06275 - deltat: 0.00025
[  253] t: 0.06300 - deltat: 0.00025
	[    1] t: 0.06300 - deltat: 0.00025
	[    2] t: 0.06300 - deltat: 0.00025
	[    3] t: 0.06300 - deltat: 0.00025
	[    4] t: 0.06300 - deltat: 0.00025
[  254] t: 0.06325 - deltat: 0.00025
	[    1] t: 0.06325 - deltat: 0.00025
	[    2] t: 0.06325 - deltat: 0.00025
	[    3] t: 0.06325 - deltat: 0.00025
	[    4] t: 0.06325 - deltat: 0.00025
[  255] t: 0.06350 - deltat: 0.00025
	[    1] t: 0.06350 - deltat: 0.00025
	[    2] t: 0.06350 - deltat: 0.00025
	[    3] t: 0.06350 - deltat: 0.00025
	[    4] t: 0.06350 - deltat: 0.00025
[  256] t: 0.06375 - deltat: 0.00025
	[    1] t: 0.06375 - deltat: 0.00025
	[    2] t: 0.06375 - deltat: 0.00025
	[    3] t: 0.06375 - deltat: 0.00025
	[    4] t: 0.06375 - deltat: 0.00025
[  257] t: 0.06400 - deltat: 0.00025
	[    1] t: 0.06400 - deltat: 0.00025
	[    2] t: 0.06400 - deltat: 0.00025
	[    3] t: 0.06400 - deltat: 0.00025
	[    4] t: 0.06400 - deltat: 0.00025
[  258] t: 0.06425 - deltat: 0.00025
	[    1] t: 0.06425 - deltat: 0.00025
	[    2] t: 0.06425 - deltat: 0.00025
	[    3] t: 0.06425 - deltat: 0.00025
	[    4] t: 0.06425 - deltat: 0.00025
[  259] t: 0.06450 - deltat: 0.00025
	[    1] t: 0.06450 - deltat: 0.00025
	[    2] t: 0.06450 - deltat: 0.00025
	[    3] t: 0.06450 - deltat: 0.00025
	[    4] t: 0.06450 - deltat: 0.00025
[  260] t: 0.06475 - deltat: 0.00025
	[    1] t: 0.06475 - deltat: 0.00025
	[    2] t: 0.06475 - deltat: 0.00025
	[    3] t: 0.06475 - deltat: 0.00025
	[    4] t: 0.06475 - deltat: 0.00025
[  261] t: 0.06500 - deltat: 0.00025
	[    1] t: 0.06500 - deltat: 0.00025
	[    2] t: 0.06500 - deltat: 0.00025
	[    3] t: 0.06500 - deltat: 0.00025
	[    4] t: 0.06500 - deltat: 0.00025
[  262] t: 0.06525 - deltat: 0.00025
	[    1] t: 0.06525 - deltat: 0.00025
	[    2] t: 0.06525 - deltat: 0.00025
	[    3] t: 0.06525 - deltat: 0.00025
	[    4] t: 0.06525 - deltat: 0.00025
[  263] t: 0.06550 - deltat: 0.00025
	[    1] t: 0.06550 - deltat: 0.00025
	[    2] t: 0.06550 - deltat: 0.00025
	[    3] t: 0.06550 - deltat: 0.00025
	[    4] t: 0.06550 - deltat: 0.00025
[  264] t: 0.06575 - deltat: 0.00025
	[    1] t: 0.06575 - deltat: 0.00025
	[    2] t: 0.06575 - deltat: 0.00025
	[    3] t: 0.06575 - deltat: 0.00025
	[    4] t: 0.06575 - deltat: 0.00025
[  265] t: 0.06600 - deltat: 0.00025
	[    1] t: 0.06600 - deltat: 0.00025
	[    2] t: 0.06600 - deltat: 0.00025
	[    3] t: 0.06600 - deltat: 0.00025
	[    4] t: 0.06600 - deltat: 0.00025
[  266] t: 0.06625 - deltat: 0.00025
	[    1] t: 0.06625 - deltat: 0.00025
	[    2] t: 0.06625 - deltat: 0.00025
	[    3] t: 0.06625 - deltat: 0.00025
	[    4] t: 0.06625 - deltat: 0.00025
[  267] t: 0.06650 - deltat: 0.00025
	[    1] t: 0.06650 - deltat: 0.00025
	[    2] t: 0.06650 - deltat: 0.00025
	[    3] t: 0.06650 - deltat: 0.00025
	[    4] t: 0.06650 - deltat: 0.00025
[  268] t: 0.06675 - deltat: 0.00025
	[    1] t: 0.06675 - deltat: 0.00025
	[    2] t: 0.06675 - deltat: 0.00025
	[    3] t: 0.06675 - deltat: 0.00025
	[    4] t: 0.06675 - deltat: 0.00025
[  269] t: 0.06700 - deltat: 0.00025
	[    1] t: 0.06700 - deltat: 0.00025
	[    2] t: 0.06700 - deltat: 0.00025
	[    3] t: 0.06700 - deltat: 0.00025
	[    4] t: 0.06700 - deltat: 0.00025
[  270] t: 0.06725 - deltat: 0.00025
	[    1] t: 0.06725 - deltat: 0.00025
	[    2] t: 0.06725 - deltat: 0.00025
	[    3] t: 0.06725 - deltat: 0.00025
	[    4] t: 0.06725 - deltat: 0.00025
[  271] t: 0.06750 - deltat: 0.00025
	[    1] t: 0.06750 - deltat: 0.00025
	[    2] t: 0.06750 - deltat: 0.00025
	[    3] t: 0.06750 - deltat: 0.00025
	[    4] t: 0.06750 - deltat: 0.00025
[  272] t: 0.06775 - deltat: 0.00025
	[    1] t: 0.06775 - deltat: 0.00025
	[    2] t: 0.06775 - deltat: 0.00025
	[    3] t: 0.06775 - deltat: 0.00025
	[    4] t: 0.06775 - deltat: 0.00025
[  273] t: 0.06800 - deltat: 0.00025
	[    1] t: 0.06800 - deltat: 0.00025
	[    2] t: 0.06800 - deltat: 0.00025
	[    3] t: 0.06800 - deltat: 0.00025
	[    4] t: 0.06800 - deltat: 0.00025
[  274] t: 0.06825 - deltat: 0.00025
	[    1] t: 0.06825 - deltat: 0.00025
	[    2] t: 0.06825 - deltat: 0.00025
	[    3] t: 0.06825 - deltat: 0.00025
	[    4] t: 0.06825 - deltat: 0.00025
[  275] t: 0.06850 - deltat: 0.00025
	[    1] t: 0.06850 - deltat: 0.00025
	[    2] t: 0.06850 - deltat: 0.00025
	[    3] t: 0.06850 - deltat: 0.00025
	[    4] t: 0.06850 - deltat: 0.00025
[  276] t: 0.06875 - deltat: 0.00025
	[    1] t: 0.06875 - deltat: 0.00025
	[    2] t: 0.06875 - deltat: 0.00025
	[    3] t: 0.06875 - deltat: 0.00025
	[    4] t: 0.06875 - deltat: 0.00025
[  277] t: 0.06900 - deltat: 0.00025
	[    1] t: 0.06900 - deltat: 0.00025
	[    2] t: 0.06900 - deltat: 0.00025
	[    3] t: 0.06900 - deltat: 0.00025
	[    4] t: 0.06900 - deltat: 0.00025
[  278] t: 0.06925 - deltat: 0.00025
	[    1] t: 0.06925 - deltat: 0.00025
	[    2] t: 0.06925 - deltat: 0.00025
	[    3] t: 0.06925 - deltat: 0.00025
	[    4] t: 0.06925 - deltat: 0.00025
[  279] t: 0.06950 - deltat: 0.00025
	[    1] t: 0.06950 - deltat: 0.00025
	[    2] t: 0.06950 - deltat: 0.00025
	[    3] t: 0.06950 - deltat: 0.00025
	[    4] t: 0.06950 - deltat: 0.00025
[  280] t: 0.06975 - deltat: 0.00025
	[    1] t: 0.06975 - deltat: 0.00025
	[    2] t: 0.06975 - deltat: 0.00025
	[    3] t: 0.06975 - deltat: 0.00025
	[    4] t: 0.06975 - deltat: 0.00025
[  281] t: 0.07000 - deltat: 0.00025
	[    1] t: 0.07000 - deltat: 0.00025
	[    2] t: 0.07000 - deltat: 0.00025
	[    3] t: 0.07000 - deltat: 0.00025
	[    4] t: 0.07000 - deltat: 0.00025
[  282] t: 0.07025 - deltat: 0.00025
	[    1] t: 0.07025 - deltat: 0.00025
	[    2] t: 0.07025 - deltat: 0.00025
	[    3] t: 0.07025 - deltat: 0.00025
	[    4] t: 0.07025 - deltat: 0.00025
[  283] t: 0.07050 - deltat: 0.00025
	[    1] t: 0.07050 - deltat: 0.00025
	[    2] t: 0.07050 - deltat: 0.00025
	[    3] t: 0.07050 - deltat: 0.00025
	[    4] t: 0.07050 - deltat: 0.00025
[  284] t: 0.07075 - deltat: 0.00025
	[    1] t: 0.07075 - deltat: 0.00025
	[    2] t: 0.07075 - deltat: 0.00025
	[    3] t: 0.07075 - deltat: 0.00025
	[    4] t: 0.07075 - deltat: 0.00025
[  285] t: 0.07100 - deltat: 0.00025
	[    1] t: 0.07100 - deltat: 0.00025
	[    2] t: 0.07100 - deltat: 0.00025
	[    3] t: 0.07100 - deltat: 0.00025
	[    4] t: 0.07100 - deltat: 0.00025
[  286] t: 0.07125 - deltat: 0.00025
	[    1] t: 0.07125 - deltat: 0.00025
	[    2] t: 0.07125 - deltat: 0.00025
	[    3] t: 0.07125 - deltat: 0.00025
	[    4] t: 0.07125 - deltat: 0.00025
[  287] t: 0.07150 - deltat: 0.00025
	[    1] t: 0.07150 - deltat: 0.00025
	[    2] t: 0.07150 - deltat: 0.00025
	[    3] t: 0.07150 - deltat: 0.00025
	[    4] t: 0.07150 - deltat: 0.00025
[  288] t: 0.07175 - deltat: 0.00025
	[    1] t: 0.07175 - deltat: 0.00025
	[    2] t: 0.07175 - deltat: 0.00025
	[    3] t: 0.07175 - deltat: 0.00025
	[    4] t: 0.07175 - deltat: 0.00025
[  289] t: 0.07200 - deltat: 0.00025
	[    1] t: 0.07200 - deltat: 0.00025
	[    2] t: 0.07200 - deltat: 0.00025
	[    3] t: 0.07200 - deltat: 0.00025
	[    4] t: 0.07200 - deltat: 0.00025
[  290] t: 0.07225 - deltat: 0.00025
	[    1] t: 0.07225 - deltat: 0.00025
	[    2] t: 0.07225 - deltat: 0.00025
	[    3] t: 0.07225 - deltat: 0.00025
	[    4] t: 0.07225 - deltat: 0.00025
[  291] t: 0.07250 - deltat: 0.00025
	[    1] t: 0.07250 - deltat: 0.00025
	[    2] t: 0.07250 - deltat: 0.00025
	[    3] t: 0.07250 - deltat: 0.00025
	[    4] t: 0.07250 - deltat: 0.00025
[  292] t: 0.07275 - deltat: 0.00025
	[    1] t: 0.07275 - deltat: 0.00025
	[    2] t: 0.07275 - deltat: 0.00025
	[    3] t: 0.07275 - deltat: 0.00025
	[    4] t: 0.07275 - deltat: 0.00025
[  293] t: 0.07300 - deltat: 0.00025
	[    1] t: 0.07300 - deltat: 0.00025
	[    2] t: 0.07300 - deltat: 0.00025
	[    3] t: 0.07300 - deltat: 0.00025
	[    4] t: 0.07300 - deltat: 0.00025
[  294] t: 0.07325 - deltat: 0.00025
	[    1] t: 0.07325 - deltat: 0.00025
	[    2] t: 0.07325 - deltat: 0.00025
	[    3] t: 0.07325 - deltat: 0.00025
	[    4] t: 0.07325 - deltat: 0.00025
[  295] t: 0.07350 - deltat: 0.00025
	[    1] t: 0.07350 - deltat: 0.00025
	[    2] t: 0.07350 - deltat: 0.00025
	[    3] t: 0.07350 - deltat: 0.00025
	[    4] t: 0.07350 - deltat: 0.00025
[  296] t: 0.07375 - deltat: 0.00025
	[    1] t: 0.07375 - deltat: 0.00025
	[    2] t: 0.07375 - deltat: 0.00025
	[    3] t: 0.07375 - deltat: 0.00025
	[    4] t: 0.07375 - deltat: 0.00025
[  297] t: 0.07400 - deltat: 0.00025
	[    1] t: 0.07400 - deltat: 0.00025
	[    2] t: 0.07400 - deltat: 0.00025
	[    3] t: 0.07400 - deltat: 0.00025
	[    4] t: 0.07400 - deltat: 0.00025
[  298] t: 0.07425 - deltat: 0.00025
	[    1] t: 0.07425 - deltat: 0.00025
	[    2] t: 0.07425 - deltat: 0.00025
	[    3] t: 0.07425 - deltat: 0.00025
	[    4] t: 0.07425 - deltat: 0.00025
[  299] t: 0.07450 - deltat: 0.00025
	[    1] t: 0.07450 - deltat: 0.00025
	[    2] t: 0.07450 - deltat: 0.00025
	[    3] t: 0.07450 - deltat: 0.00025
	[    4] t: 0.07450 - deltat: 0.00025
[  300] t: 0.07475 - deltat: 0.00025
	[    1] t: 0.07475 - deltat: 0.00025
	[    2] t: 0.07475 - deltat: 0.00025
	[    3] t: 0.07475 - deltat: 0.00025
	[    4] t: 0.07475 - deltat: 0.00025
[  301] t: 0.07500 - deltat: 0.00025
	[    1] t: 0.07500 - deltat: 0.00025
	[    2] t: 0.07500 - deltat: 0.00025
	[    3] t: 0.07500 - deltat: 0.00025
	[    4] t: 0.07500 - deltat: 0.00025
[  302] t: 0.07525 - deltat: 0.00025
	[    1] t: 0.07525 - deltat: 0.00025
	[    2] t: 0.07525 - deltat: 0.00025
	[    3] t: 0.07525 - deltat: 0.00025
	[    4] t: 0.07525 - deltat: 0.00025
[  303] t: 0.07550 - deltat: 0.00025
	[    1] t: 0.07550 - deltat: 0.00025
	[    2] t: 0.07550 - deltat: 0.00025
	[    3] t: 0.07550 - deltat: 0.00025
	[    4] t: 0.07550 - deltat: 0.00025
[  304] t: 0.07575 - deltat: 0.00025
	[    1] t: 0.07575 - deltat: 0.00025
	[    2] t: 0.07575 - deltat: 0.00025
	[    3] t: 0.07575 - deltat: 0.00025
	[    4] t: 0.07575 - deltat: 0.00025
[  305] t: 0.07600 - deltat: 0.00025
	[    1] t: 0.07600 - deltat: 0.00025
	[    2] t: 0.07600 - deltat: 0.00025
	[    3] t: 0.07600 - deltat: 0.00025
	[    4] t: 0.07600 - deltat: 0.00025
[  306] t: 0.07625 - deltat: 0.00025
	[    1] t: 0.07625 - deltat: 0.00025
	[    2] t: 0.07625 - deltat: 0.00025
	[    3] t: 0.07625 - deltat: 0.00025
	[    4] t: 0.07625 - deltat: 0.00025
[  307] t: 0.07650 - deltat: 0.00025
	[    1] t: 0.07650 - deltat: 0.00025
	[    2] t: 0.07650 - deltat: 0.00025
	[    3] t: 0.07650 - deltat: 0.00025
	[    4] t: 0.07650 - deltat: 0.00025
[  308] t: 0.07675 - deltat: 0.00025
	[    1] t: 0.07675 - deltat: 0.00025
	[    2] t: 0.07675 - deltat: 0.00025
	[    3] t: 0.07675 - deltat: 0.00025
	[    4] t: 0.07675 - deltat: 0.00025
[  309] t: 0.07700 - deltat: 0.00025
	[    1] t: 0.07700 - deltat: 0.00025
	[    2] t: 0.07700 - deltat: 0.00025
	[    3] t: 0.07700 - deltat: 0.00025
	[    4] t: 0.07700 - deltat: 0.00025
[  310] t: 0.07725 - deltat: 0.00025
	[    1] t: 0.07725 - deltat: 0.00025
	[    2] t: 0.07725 - deltat: 0.00025
	[    3] t: 0.07725 - deltat: 0.00025
	[    4] t: 0.07725 - deltat: 0.00025
[  311] t: 0.07750 - deltat: 0.00025
	[    1] t: 0.07750 - deltat: 0.00025
	[    2] t: 0.07750 - deltat: 0.00025
	[    3] t: 0.07750 - deltat: 0.00025
	[    4] t: 0.07750 - deltat: 0.00025
[  312] t: 0.07775 - deltat: 0.00025
	[    1] t: 0.07775 - deltat: 0.00025
	[    2] t: 0.07775 - deltat: 0.00025
	[    3] t: 0.07775 - deltat: 0.00025
	[    4] t: 0.07775 - deltat: 0.00025
[  313] t: 0.07800 - deltat: 0.00025
	[    1] t: 0.07800 - deltat: 0.00025
	[    2] t: 0.07800 - deltat: 0.00025
	[    3] t: 0.07800 - deltat: 0.00025
	[    4] t: 0.07800 - deltat: 0.00025
[  314] t: 0.07825 - deltat: 0.00025
	[    1] t: 0.07825 - deltat: 0.00025
	[    2] t: 0.07825 - deltat: 0.00025
	[    3] t: 0.07825 - deltat: 0.00025
	[    4] t: 0.07825 - deltat: 0.00025
[  315] t: 0.07850 - deltat: 0.00025
	[    1] t: 0.07850 - deltat: 0.00025
	[    2] t: 0.07850 - deltat: 0.00025
	[    3] t: 0.07850 - deltat: 0.00025
	[    4] t: 0.07850 - deltat: 0.00025
[  316] t: 0.07875 - deltat: 0.00025
	[    1] t: 0.07875 - deltat: 0.00025
	[    2] t: 0.07875 - deltat: 0.00025
	[    3] t: 0.07875 - deltat: 0.00025
	[    4] t: 0.07875 - deltat: 0.00025
[  317] t: 0.07900 - deltat: 0.00025
	[    1] t: 0.07900 - deltat: 0.00025
	[    2] t: 0.07900 - deltat: 0.00025
	[    3] t: 0.07900 - deltat: 0.00025
	[    4] t: 0.07900 - deltat: 0.00025
[  318] t: 0.07925 - deltat: 0.00025
	[    1] t: 0.07925 - deltat: 0.00025
	[    2] t: 0.07925 - deltat: 0.00025
	[    3] t: 0.07925 - deltat: 0.00025
	[    4] t: 0.07925 - deltat: 0.00025
[  319] t: 0.07950 - deltat: 0.00025
	[    1] t: 0.07950 - deltat: 0.00025
	[    2] t: 0.07950 - deltat: 0.00025
	[    3] t: 0.07950 - deltat: 0.00025
	[    4] t: 0.07950 - deltat: 0.00025
[  320] t: 0.07975 - deltat: 0.00025
	[    1] t: 0.07975 - deltat: 0.00025
	[    2] t: 0.07975 - deltat: 0.00025
	[    3] t: 0.07975 - deltat: 0.00025
	[    4] t: 0.07975 - deltat: 0.00025
[  321] t: 0.08000 - deltat: 0.00025
	[    1] t: 0.08000 - deltat: 0.00025
	[    2] t: 0.08000 - deltat: 0.00025
	[    3] t: 0.08000 - deltat: 0.00025
	[    4] t: 0.08000 - deltat: 0.00025
[  322] t: 0.08025 - deltat: 0.00025
	[    1] t: 0.08025 - deltat: 0.00025
	[    2] t: 0.08025 - deltat: 0.00025
	[    3] t: 0.08025 - deltat: 0.00025
	[    4] t: 0.08025 - deltat: 0.00025
[  323] t: 0.08050 - deltat: 0.00025
	[    1] t: 0.08050 - deltat: 0.00025
	[    2] t: 0.08050 - deltat: 0.00025
	[    3] t: 0.08050 - deltat: 0.00025
	[    4] t: 0.08050 - deltat: 0.00025
[  324] t: 0.08075 - deltat: 0.00025
	[    1] t: 0.08075 - deltat: 0.00025
	[    2] t: 0.08075 - deltat: 0.00025
	[    3] t: 0.08075 - deltat: 0.00025
	[    4] t: 0.08075 - deltat: 0.00025
[  325] t: 0.08100 - deltat: 0.00025
	[    1] t: 0.08100 - deltat: 0.00025
	[    2] t: 0.08100 - deltat: 0.00025
	[    3] t: 0.08100 - deltat: 0.00025
	[    4] t: 0.08100 - deltat: 0.00025
[  326] t: 0.08125 - deltat: 0.00025
	[    1] t: 0.08125 - deltat: 0.00025
	[    2] t: 0.08125 - deltat: 0.00025
	[    3] t: 0.08125 - deltat: 0.00025
	[    4] t: 0.08125 - deltat: 0.00025
[  327] t: 0.08150 - deltat: 0.00025
	[    1] t: 0.08150 - deltat: 0.00025
	[    2] t: 0.08150 - deltat: 0.00025
	[    3] t: 0.08150 - deltat: 0.00025
	[    4] t: 0.08150 - deltat: 0.00025
[  328] t: 0.08175 - deltat: 0.00025
	[    1] t: 0.08175 - deltat: 0.00025
	[    2] t: 0.08175 - deltat: 0.00025
	[    3] t: 0.08175 - deltat: 0.00025
	[    4] t: 0.08175 - deltat: 0.00025
[  329] t: 0.08200 - deltat: 0.00025
	[    1] t: 0.08200 - deltat: 0.00025
	[    2] t: 0.08200 - deltat: 0.00025
	[    3] t: 0.08200 - deltat: 0.00025
	[    4] t: 0.08200 - deltat: 0.00025
[  330] t: 0.08225 - deltat: 0.00025
	[    1] t: 0.08225 - deltat: 0.00025
	[    2] t: 0.08225 - deltat: 0.00025
	[    3] t: 0.08225 - deltat: 0.00025
	[    4] t: 0.08225 - deltat: 0.00025
[  331] t: 0.08250 - deltat: 0.00025
	[    1] t: 0.08250 - deltat: 0.00025
	[    2] t: 0.08250 - deltat: 0.00025
	[    3] t: 0.08250 - deltat: 0.00025
	[    4] t: 0.08250 - deltat: 0.00025
[  332] t: 0.08275 - deltat: 0.00025
	[    1] t: 0.08275 - deltat: 0.00025
	[    2] t: 0.08275 - deltat: 0.00025
	[    3] t: 0.08275 - deltat: 0.00025
	[    4] t: 0.08275 - deltat: 0.00025
[  333] t: 0.08300 - deltat: 0.00025
	[    1] t: 0.08300 - deltat: 0.00025
	[    2] t: 0.08300 - deltat: 0.00025
	[    3] t: 0.08300 - deltat: 0.00025
	[    4] t: 0.08300 - deltat: 0.00025
[  334] t: 0.08325 - deltat: 0.00025
	[    1] t: 0.08325 - deltat: 0.00025
	[    2] t: 0.08325 - deltat: 0.00025
	[    3] t: 0.08325 - deltat: 0.00025
	[    4] t: 0.08325 - deltat: 0.00025
[  335] t: 0.08350 - deltat: 0.00025
	[    1] t: 0.08350 - deltat: 0.00025
	[    2] t: 0.08350 - deltat: 0.00025
	[    3] t: 0.08350 - deltat: 0.00025
	[    4] t: 0.08350 - deltat: 0.00025
[  336] t: 0.08375 - deltat: 0.00025
	[    1] t: 0.08375 - deltat: 0.00025
	[    2] t: 0.08375 - deltat: 0.00025
	[    3] t: 0.08375 - deltat: 0.00025
	[    4] t: 0.08375 - deltat: 0.00025
[  337] t: 0.08400 - deltat: 0.00025
	[    1] t: 0.08400 - deltat: 0.00025
	[    2] t: 0.08400 - deltat: 0.00025
	[    3] t: 0.08400 - deltat: 0.00025
	[    4] t: 0.08400 - deltat: 0.00025
[  338] t: 0.08425 - deltat: 0.00025
	[    1] t: 0.08425 - deltat: 0.00025
	[    2] t: 0.08425 - deltat: 0.00025
	[    3] t: 0.08425 - deltat: 0.00025
	[    4] t: 0.08425 - deltat: 0.00025
[  339] t: 0.08450 - deltat: 0.00025
	[    1] t: 0.08450 - deltat: 0.00025
	[    2] t: 0.08450 - deltat: 0.00025
	[    3] t: 0.08450 - deltat: 0.00025
	[    4] t: 0.08450 - deltat: 0.00025
[  340] t: 0.08475 - deltat: 0.00025
	[    1] t: 0.08475 - deltat: 0.00025
	[    2] t: 0.08475 - deltat: 0.00025
	[    3] t: 0.08475 - deltat: 0.00025
	[    4] t: 0.08475 - deltat: 0.00025
[  341] t: 0.08500 - deltat: 0.00025
	[    1] t: 0.08500 - deltat: 0.00025
	[    2] t: 0.08500 - deltat: 0.00025
	[    3] t: 0.08500 - deltat: 0.00025
	[    4] t: 0.08500 - deltat: 0.00025
[  342] t: 0.08525 - deltat: 0.00025
	[    1] t: 0.08525 - deltat: 0.00025
	[    2] t: 0.08525 - deltat: 0.00025
	[    3] t: 0.08525 - deltat: 0.00025
	[    4] t: 0.08525 - deltat: 0.00025
[  343] t: 0.08550 - deltat: 0.00025
	[    1] t: 0.08550 - deltat: 0.00025
	[    2] t: 0.08550 - deltat: 0.00025
	[    3] t: 0.08550 - deltat: 0.00025
	[    4] t: 0.08550 - deltat: 0.00025
[  344] t: 0.08575 - deltat: 0.00025
	[    1] t: 0.08575 - deltat: 0.00025
	[    2] t: 0.08575 - deltat: 0.00025
	[    3] t: 0.08575 - deltat: 0.00025
	[    4] t: 0.08575 - deltat: 0.00025
[  345] t: 0.08600 - deltat: 0.00025
	[    1] t: 0.08600 - deltat: 0.00025
	[    2] t: 0.08600 - deltat: 0.00025
	[    3] t: 0.08600 - deltat: 0.00025
	[    4] t: 0.08600 - deltat: 0.00025
[  346] t: 0.08625 - deltat: 0.00025
	[    1] t: 0.08625 - deltat: 0.00025
	[    2] t: 0.08625 - deltat: 0.00025
	[    3] t: 0.08625 - deltat: 0.00025
	[    4] t: 0.08625 - deltat: 0.00025
[  347] t: 0.08650 - deltat: 0.00025
	[    1] t: 0.08650 - deltat: 0.00025
	[    2] t: 0.08650 - deltat: 0.00025
	[    3] t: 0.08650 - deltat: 0.00025
	[    4] t: 0.08650 - deltat: 0.00025
[  348] t: 0.08675 - deltat: 0.00025
	[    1] t: 0.08675 - deltat: 0.00025
	[    2] t: 0.08675 - deltat: 0.00025
	[    3] t: 0.08675 - deltat: 0.00025
	[    4] t: 0.08675 - deltat: 0.00025
[  349] t: 0.08700 - deltat: 0.00025
	[    1] t: 0.08700 - deltat: 0.00025
	[    2] t: 0.08700 - deltat: 0.00025
	[    3] t: 0.08700 - deltat: 0.00025
	[    4] t: 0.08700 - deltat: 0.00025
[  350] t: 0.08725 - deltat: 0.00025
	[    1] t: 0.08725 - deltat: 0.00025
	[    2] t: 0.08725 - deltat: 0.00025
	[    3] t: 0.08725 - deltat: 0.00025
	[    4] t: 0.08725 - deltat: 0.00025
[  351] t: 0.08750 - deltat: 0.00025
	[    1] t: 0.08750 - deltat: 0.00025
	[    2] t: 0.08750 - deltat: 0.00025
	[    3] t: 0.08750 - deltat: 0.00025
	[    4] t: 0.08750 - deltat: 0.00025
[  352] t: 0.08775 - deltat: 0.00025
	[    1] t: 0.08775 - deltat: 0.00025
	[    2] t: 0.08775 - deltat: 0.00025
	[    3] t: 0.08775 - deltat: 0.00025
	[    4] t: 0.08775 - deltat: 0.00025
[  353] t: 0.08800 - deltat: 0.00025
	[    1] t: 0.08800 - deltat: 0.00025
	[    2] t: 0.08800 - deltat: 0.00025
	[    3] t: 0.08800 - deltat: 0.00025
	[    4] t: 0.08800 - deltat: 0.00025
[  354] t: 0.08825 - deltat: 0.00025
	[    1] t: 0.08825 - deltat: 0.00025
	[    2] t: 0.08825 - deltat: 0.00025
	[    3] t: 0.08825 - deltat: 0.00025
	[    4] t: 0.08825 - deltat: 0.00025
[  355] t: 0.08850 - deltat: 0.00025
	[    1] t: 0.08850 - deltat: 0.00025
	[    2] t: 0.08850 - deltat: 0.00025
	[    3] t: 0.08850 - deltat: 0.00025
	[    4] t: 0.08850 - deltat: 0.00025
[  356] t: 0.08875 - deltat: 0.00025
	[    1] t: 0.08875 - deltat: 0.00025
	[    2] t: 0.08875 - deltat: 0.00025
	[    3] t: 0.08875 - deltat: 0.00025
	[    4] t: 0.08875 - deltat: 0.00025
[  357] t: 0.08900 - deltat: 0.00025
	[    1] t: 0.08900 - deltat: 0.00025
	[    2] t: 0.08900 - deltat: 0.00025
	[    3] t: 0.08900 - deltat: 0.00025
	[    4] t: 0.08900 - deltat: 0.00025
[  358] t: 0.08925 - deltat: 0.00025
	[    1] t: 0.08925 - deltat: 0.00025
	[    2] t: 0.08925 - deltat: 0.00025
	[    3] t: 0.08925 - deltat: 0.00025
	[    4] t: 0.08925 - deltat: 0.00025
[  359] t: 0.08950 - deltat: 0.00025
	[    1] t: 0.08950 - deltat: 0.00025
	[    2] t: 0.08950 - deltat: 0.00025
	[    3] t: 0.08950 - deltat: 0.00025
	[    4] t: 0.08950 - deltat: 0.00025
[  360] t: 0.08975 - deltat: 0.00025
	[    1] t: 0.08975 - deltat: 0.00025
	[    2] t: 0.08975 - deltat: 0.00025
	[    3] t: 0.08975 - deltat: 0.00025
	[    4] t: 0.08975 - deltat: 0.00025
[  361] t: 0.09000 - deltat: 0.00025
	[    1] t: 0.09000 - deltat: 0.00025
	[    2] t: 0.09000 - deltat: 0.00025
	[    3] t: 0.09000 - deltat: 0.00025
	[    4] t: 0.09000 - deltat: 0.00025
[  362] t: 0.09025 - deltat: 0.00025
	[    1] t: 0.09025 - deltat: 0.00025
	[    2] t: 0.09025 - deltat: 0.00025
	[    3] t: 0.09025 - deltat: 0.00025
	[    4] t: 0.09025 - deltat: 0.00025
[  363] t: 0.09050 - deltat: 0.00025
	[    1] t: 0.09050 - deltat: 0.00025
	[    2] t: 0.09050 - deltat: 0.00025
	[    3] t: 0.09050 - deltat: 0.00025
	[    4] t: 0.09050 - deltat: 0.00025
[  364] t: 0.09075 - deltat: 0.00025
	[    1] t: 0.09075 - deltat: 0.00025
	[    2] t: 0.09075 - deltat: 0.00025
	[    3] t: 0.09075 - deltat: 0.00025
	[    4] t: 0.09075 - deltat: 0.00025
[  365] t: 0.09100 - deltat: 0.00025
	[    1] t: 0.09100 - deltat: 0.00025
	[    2] t: 0.09100 - deltat: 0.00025
	[    3] t: 0.09100 - deltat: 0.00025
	[    4] t: 0.09100 - deltat: 0.00025
[  366] t: 0.09125 - deltat: 0.00025
	[    1] t: 0.09125 - deltat: 0.00025
	[    2] t: 0.09125 - deltat: 0.00025
	[    3] t: 0.09125 - deltat: 0.00025
	[    4] t: 0.09125 - deltat: 0.00025
[  367] t: 0.09150 - deltat: 0.00025
	[    1] t: 0.09150 - deltat: 0.00025
	[    2] t: 0.09150 - deltat: 0.00025
	[    3] t: 0.09150 - deltat: 0.00025
	[    4] t: 0.09150 - deltat: 0.00025
[  368] t: 0.09175 - deltat: 0.00025
	[    1] t: 0.09175 - deltat: 0.00025
	[    2] t: 0.09175 - deltat: 0.00025
	[    3] t: 0.09175 - deltat: 0.00025
	[    4] t: 0.09175 - deltat: 0.00025
[  369] t: 0.09200 - deltat: 0.00025
	[    1] t: 0.09200 - deltat: 0.00025
	[    2] t: 0.09200 - deltat: 0.00025
	[    3] t: 0.09200 - deltat: 0.00025
	[    4] t: 0.09200 - deltat: 0.00025
[  370] t: 0.09225 - deltat: 0.00025
	[    1] t: 0.09225 - deltat: 0.00025
	[    2] t: 0.09225 - deltat: 0.00025
	[    3] t: 0.09225 - deltat: 0.00025
	[    4] t: 0.09225 - deltat: 0.00025
[  371] t: 0.09250 - deltat: 0.00025
	[    1] t: 0.09250 - deltat: 0.00025
	[    2] t: 0.09250 - deltat: 0.00025
	[    3] t: 0.09250 - deltat: 0.00025
	[    4] t: 0.09250 - deltat: 0.00025
[  372] t: 0.09275 - deltat: 0.00025
	[    1] t: 0.09275 - deltat: 0.00025
	[    2] t: 0.09275 - deltat: 0.00025
	[    3] t: 0.09275 - deltat: 0.00025
	[    4] t: 0.09275 - deltat: 0.00025
[  373] t: 0.09300 - deltat: 0.00025
	[    1] t: 0.09300 - deltat: 0.00025
	[    2] t: 0.09300 - deltat: 0.00025
	[    3] t: 0.09300 - deltat: 0.00025
	[    4] t: 0.09300 - deltat: 0.00025
[  374] t: 0.09325 - deltat: 0.00025
	[    1] t: 0.09325 - deltat: 0.00025
	[    2] t: 0.09325 - deltat: 0.00025
	[    3] t: 0.09325 - deltat: 0.00025
	[    4] t: 0.09325 - deltat: 0.00025
[  375] t: 0.09350 - deltat: 0.00025
	[    1] t: 0.09350 - deltat: 0.00025
	[    2] t: 0.09350 - deltat: 0.00025
	[    3] t: 0.09350 - deltat: 0.00025
	[    4] t: 0.09350 - deltat: 0.00025
[  376] t: 0.09375 - deltat: 0.00025
	[    1] t: 0.09375 - deltat: 0.00025
	[    2] t: 0.09375 - deltat: 0.00025
	[    3] t: 0.09375 - deltat: 0.00025
	[    4] t: 0.09375 - deltat: 0.00025
[  377] t: 0.09400 - deltat: 0.00025
	[    1] t: 0.09400 - deltat: 0.00025
	[    2] t: 0.09400 - deltat: 0.00025
	[    3] t: 0.09400 - deltat: 0.00025
	[    4] t: 0.09400 - deltat: 0.00025
[  378] t: 0.09425 - deltat: 0.00025
	[    1] t: 0.09425 - deltat: 0.00025
	[    2] t: 0.09425 - deltat: 0.00025
	[    3] t: 0.09425 - deltat: 0.00025
	[    4] t: 0.09425 - deltat: 0.00025
[  379] t: 0.09450 - deltat: 0.00025
	[    1] t: 0.09450 - deltat: 0.00025
	[    2] t: 0.09450 - deltat: 0.00025
	[    3] t: 0.09450 - deltat: 0.00025
	[    4] t: 0.09450 - deltat: 0.00025
[  380] t: 0.09475 - deltat: 0.00025
	[    1] t: 0.09475 - deltat: 0.00025
	[    2] t: 0.09475 - deltat: 0.00025
	[    3] t: 0.09475 - deltat: 0.00025
	[    4] t: 0.09475 - deltat: 0.00025
[  381] t: 0.09500 - deltat: 0.00025
	[    1] t: 0.09500 - deltat: 0.00025
	[    2] t: 0.09500 - deltat: 0.00025
	[    3] t: 0.09500 - deltat: 0.00025
	[    4] t: 0.09500 - deltat: 0.00025
[  382] t: 0.09525 - deltat: 0.00025
	[    1] t: 0.09525 - deltat: 0.00025
	[    2] t: 0.09525 - deltat: 0.00025
	[    3] t: 0.09525 - deltat: 0.00025
	[    4] t: 0.09525 - deltat: 0.00025
[  383] t: 0.09550 - deltat: 0.00025
	[    1] t: 0.09550 - deltat: 0.00025
	[    2] t: 0.09550 - deltat: 0.00025
	[    3] t: 0.09550 - deltat: 0.00025
	[    4] t: 0.09550 - deltat: 0.00025
[  384] t: 0.09575 - deltat: 0.00025
	[    1] t: 0.09575 - deltat: 0.00025
	[    2] t: 0.09575 - deltat: 0.00025
	[    3] t: 0.09575 - deltat: 0.00025
	[    4] t: 0.09575 - deltat: 0.00025
[  385] t: 0.09600 - deltat: 0.00025
	[    1] t: 0.09600 - deltat: 0.00025
	[    2] t: 0.09600 - deltat: 0.00025
	[    3] t: 0.09600 - deltat: 0.00025
	[    4] t: 0.09600 - deltat: 0.00025
[  386] t: 0.09625 - deltat: 0.00025
	[    1] t: 0.09625 - deltat: 0.00025
	[    2] t: 0.09625 - deltat: 0.00025
	[    3] t: 0.09625 - deltat: 0.00025
	[    4] t: 0.09625 - deltat: 0.00025
[  387] t: 0.09650 - deltat: 0.00025
	[    1] t: 0.09650 - deltat: 0.00025
	[    2] t: 0.09650 - deltat: 0.00025
	[    3] t: 0.09650 - deltat: 0.00025
	[    4] t: 0.09650 - deltat: 0.00025
[  388] t: 0.09675 - deltat: 0.00025
	[    1] t: 0.09675 - deltat: 0.00025
	[    2] t: 0.09675 - deltat: 0.00025
	[    3] t: 0.09675 - deltat: 0.00025
	[    4] t: 0.09675 - deltat: 0.00025
[  389] t: 0.09700 - deltat: 0.00025
	[    1] t: 0.09700 - deltat: 0.00025
	[    2] t: 0.09700 - deltat: 0.00025
	[    3] t: 0.09700 - deltat: 0.00025
	[    4] t: 0.09700 - deltat: 0.00025
[  390] t: 0.09725 - deltat: 0.00025
	[    1] t: 0.09725 - deltat: 0.00025
	[    2] t: 0.09725 - deltat: 0.00025
	[    3] t: 0.09725 - deltat: 0.00025
	[    4] t: 0.09725 - deltat: 0.00025
[  391] t: 0.09750 - deltat: 0.00025
	[    1] t: 0.09750 - deltat: 0.00025
	[    2] t: 0.09750 - deltat: 0.00025
	[    3] t: 0.09750 - deltat: 0.00025
	[    4] t: 0.09750 - deltat: 0.00025
[  392] t: 0.09775 - deltat: 0.00025
	[    1] t: 0.09775 - deltat: 0.00025
	[    2] t: 0.09775 - deltat: 0.00025
	[    3] t: 0.09775 - deltat: 0.00025
	[    4] t: 0.09775 - deltat: 0.00025
[  393] t: 0.09800 - deltat: 0.00025
	[    1] t: 0.09800 - deltat: 0.00025
	[    2] t: 0.09800 - deltat: 0.00025
	[    3] t: 0.09800 - deltat: 0.00025
	[    4] t: 0.09800 - deltat: 0.00025
[  394] t: 0.09825 - deltat: 0.00025
	[    1] t: 0.09825 - deltat: 0.00025
	[    2] t: 0.09825 - deltat: 0.00025
	[    3] t: 0.09825 - deltat: 0.00025
	[    4] t: 0.09825 - deltat: 0.00025
[  395] t: 0.09850 - deltat: 0.00025
	[    1] t: 0.09850 - deltat: 0.00025
	[    2] t: 0.09850 - deltat: 0.00025
	[    3] t: 0.09850 - deltat: 0.00025
	[    4] t: 0.09850 - deltat: 0.00025
[  396] t: 0.09875 - deltat: 0.00025
	[    1] t: 0.09875 - deltat: 0.00025
	[    2] t: 0.09875 - deltat: 0.00025
	[    3] t: 0.09875 - deltat: 0.00025
	[    4] t: 0.09875 - deltat: 0.00025
[  397] t: 0.09900 - deltat: 0.00025
	[    1] t: 0.09900 - deltat: 0.00025
	[    2] t: 0.09900 - deltat: 0.00025
	[    3] t: 0.09900 - deltat: 0.00025
	[    4] t: 0.09900 - deltat: 0.00025
[  398] t: 0.09925 - deltat: 0.00025
	[    1] t: 0.09925 - deltat: 0.00025
	[    2] t: 0.09925 - deltat: 0.00025
	[    3] t: 0.09925 - deltat: 0.00025
	[    4] t: 0.09925 - deltat: 0.00025
[  399] t: 0.09950 - deltat: 0.00025
	[    1] t: 0.09950 - deltat: 0.00025
	[    2] t: 0.09950 - deltat: 0.00025
	[    3] t: 0.09950 - deltat: 0.00025
	[    4] t: 0.09950 - deltat: 0.00025
[  400] t: 0.09975 - deltat: 0.00025
	[    1] t: 0.09975 - deltat: 0.00025
	[    2] t: 0.09975 - deltat: 0.00025
	[    3] t: 0.09975 - deltat: 0.00025
	[    4] t: 0.09975 - deltat: 0.00025
End of execution of module IterativeHeatEquation
Elapsed time : 4s
